{
  "song": {
    "song": "Milf",
    "bpm": 180.0,
    "needsVoices": true,
    "player1": "bf-car",
    "player2": "mom-car",
    "speed": 2.6,
    "notes": [
      {
        "lengthInSteps": 16,
        "mustHitSection": true,
        "sectionNotes": []
      },
      {
        "lengthInSteps": 16,
        "mustHitSection": true,
        "sectionNotes": []
      },
      {
        "lengthInSteps": 16,
        "mustHitSection": false,
        "sectionNotes": [
          [
            2516.66675,
            1,
            0.0
          ],
          [
            2850.0,
            1,
            0.0
          ],
          [
            3183.3335,
            1,
            0.0
          ],
          [
            3266.66675,
            0,
            0.0
          ],
          [
            3350.0,
            3,
            0.0
          ],
          [
            3433.3335,
            2,
            166.666672
          ],
          [
            3683.3335,
            1,
            0.0
          ]
        ]
      },
      {
        "lengthInSteps": 16,
        "mustHitSection": false,
        "sectionNotes": [
          [
            4016.6670000000004,
            1,
            0.0
          ],
          [
            4350.0,
            1,
            0.0
          ],
          [
            4516.667,
            3,
            0.0
          ],
          [
            4683.3335,
            1,
            0.0
          ],
          [
            4850.0,
            0,
            0.0
          ],
          [
            5016.667,
            1,
            0.0
          ]
        ]
      },
      {
        "lengthInSteps": 16,
        "mustHitSection": false,
        "sectionNotes": [
          [
            5183.3335,
            1,
            0.0
          ],
          [
            5516.667,
            1,
            0.0
          ],
          [
            5850.0,
            1,
            0.0
          ],
          [
            5933.3335,
            0,
            0.0
          ],
          [
            6016.667,
            3,
            0.0
          ],
          [
            6100.0,
            2,
            166.666672
          ],
          [
            6350.0,
            1,
            0.0
          ]
        ]
      },
      {
        "lengthInSteps": 16,
        "mustHitSection": false,
        "sectionNotes": [
          [
            6683.3335,
            1,
            0.0
          ],
          [
            7016.667,
            1,
            0.0
          ],
          [
            7183.3335,
            3,
            0.0
          ],
          [
            7350.0,
            1,
            0.0
          ],
          [
            7516.667,
            2,
            0.0
          ],
          [
            7600.0,
            3,
            0.0
          ],
          [
            7683.3335,
            0,
            0.0
          ]
        ]
      },
      {
        "lengthInSteps": 16,
        "mustHitSection": true,
        "sectionNotes": [
          [
            7850.0,
            1,
            0.0
          ],
          [
            8183.334000000001,
            1,
            0.0
          ],
          [
            8516.667,
            1,
            0.0
          ],
          [
            8600.0,
            0,
            0.0
          ],
          [
            8683.334,
            3,
            0.0
          ],
          [
            8766.667,
            2,
            166.666672
          ],
          [
            9016.667,
            1,
            0.0
          ]
        ]
      },
      {
        "lengthInSteps": 16,
        "mustHitSection": true,
        "sectionNotes": [
          [
            9350.0,
            1,
            0.0
          ],
          [
            9683.334,
            1,
            0.0
          ],
          [
            9850.0,
            3,
            0.0
          ],
          [
            10016.667,
            1,
            0.0
          ],
          [
            10183.334,
            0,
            0.0
          ],
          [
            10350.0,
            1,
            0.0
          ]
        ]
      },
      {
        "lengthInSteps": 16,
        "mustHitSection": true,
        "sectionNotes": [
          [
            10516.667,
            1,
            0.0
          ],
          [
            10850.0,
            1,
            0.0
          ],
          [
            11183.334,
            1,
            0.0
          ],
          [
            11266.667,
            0,
            0.0
          ],
          [
            11350.0,
            3,
            0.0
          ],
          [
            11433.334,
            2,
            166.666672
          ],
          [
            11683.334,
            1,
            0.0
          ]
        ]
      },
      {
        "lengthInSteps": 16,
        "mustHitSection": true,
        "sectionNotes": [
          [
            12016.667,
            1,
            0.0
          ],
          [
            12350.0,
            1,
            0.0
          ],
          [
            12516.667,
            3,
            0.0
          ],
          [
            12683.334,
            1,
            0.0
          ],
          [
            12850.0,
            2,
            0.0
          ],
          [
            12933.334,
            3,
            0.0
          ],
          [
            13016.667,
            0,
            0.0
          ]
        ]
      },
      {
        "lengthInSteps": 16,
        "mustHitSection": false,
        "sectionNotes": [
          [
            13183.334,
            2,
            666.6667
          ],
          [
            14183.334,
            1,
            0.0
          ],
          [
            14350.0,
            1,
            0.0
          ],
          [
            14433.334,
            3,
            416.6667
          ]
        ]
      },
      {
        "lengthInSteps": 16,
        "mustHitSection": false,
        "sectionNotes": [
          [
            15016.667,
            3,
            0.0
          ],
          [
            15100.0,
            2,
            166.666672
          ],
          [
            15350.0,
            0,
            0.0
          ],
          [
            15683.334,
            1,
            250.0
          ]
        ]
      },
      {
        "lengthInSteps": 16,
        "mustHitSection": false,
        "sectionNotes": [
          [
            16016.667,
            0,
            0.0
          ],
          [
            16100.001,
            3,
            0.0
          ],
          [
            16183.334,
            1,
            250.0
          ],
          [
            16516.668,
            2,
            250.0
          ],
          [
            16850.0,
            0,
            0.0
          ]
        ]
      },
      {
        "lengthInSteps": 16,
        "mustHitSection": false,
        "sectionNotes": [
          [
            17183.334,
            3,
            0.0
          ],
          [
            17350.0,
            3,
            0.0
          ],
          [
            17433.334,
            2,
            0.0
          ],
          [
            17516.668,
            0,
            0.0
          ],
          [
            17683.334,
            1,
            0.0
          ],
          [
            17850.0,
            3,
            0.0
          ],
          [
            18016.668,
            2,
            0.0
          ],
          [
            18183.334,
            0,
            0.0
          ],
          [
            18350.0,
            1,
            0.0
          ]
        ]
      },
      {
        "lengthInSteps": 16,
        "mustHitSection": true,
        "sectionNotes": [
          [
            18516.668,
            2,
            666.6667
          ],
          [
            19516.668,
            1,
            0.0
          ],
          [
            19683.334,
            1,
            0.0
          ],
          [
            19766.668,
            3,
            416.6667
          ]
        ]
      },
      {
        "lengthInSteps": 16,
        "mustHitSection": true,
        "sectionNotes": [
          [
            20350.0,
            3,
            0.0
          ],
          [
            20433.334,
            2,
            166.666672
          ],
          [
            20683.334,
            0,
            0.0
          ],
          [
            21016.668,
            1,
            250.0
          ]
        ]
      },
      {
        "lengthInSteps": 16,
        "mustHitSection": true,
        "sectionNotes": [
          [
            21350.0,
            0,
            0.0
          ],
          [
            21433.334,
            3,
            0.0
          ],
          [
            21516.668,
            1,
            250.0
          ],
          [
            21850.0,
            2,
            250.0
          ],
          [
            22183.334,
            0,
            0.0
          ]
        ]
      },
      {
        "lengthInSteps": 16,
        "mustHitSection": true,
        "sectionNotes": [
          [
            22516.668,
            3,
            0.0
          ],
          [
            22683.334,
            3,
            0.0
          ],
          [
            22766.668,
            2,
            0.0
          ],
          [
            22850.0,
            0,
            0.0
          ],
          [
            23016.668,
            1,
            0.0
          ],
          [
            23183.334,
            3,
            0.0
          ],
          [
            23350.0,
            2,
            0.0
          ],
          [
            23516.668,
            0,
            0.0
          ],
          [
            23683.334,
            1,
            0.0
          ]
        ]
      },
      {
        "lengthInSteps": 16,
        "mustHitSection": false,
        "sectionNotes": [
          [
            23850.0,
            1,
            0.0
          ],
          [
            23933.334,
            3,
            0.0
          ],
          [
            24016.668,
            0,
            0.0
          ],
          [
            24100.0,
            3,
            0.0
          ],
          [
            24350.0,
            3,
            0.0
          ],
          [
            24516.668,
            1,
            0.0
          ],
          [
            24766.668,
            1,
            0.0
          ],
          [
            25016.668,
            0,
            0.0
          ]
        ]
      },
      {
        "lengthInSteps": 16,
        "mustHitSection": false,
        "sectionNotes": [
          [
            25350.0,
            2,
            0.0
          ],
          [
            25516.668,
            3,
            83.3333359
          ],
          [
            25683.334,
            1,
            0.0
          ],
          [
            25850.0,
            1,
            0.0
          ],
          [
            26100.0,
            1,
            0.0
          ],
          [
            26350.0,
            3,
            0.0
          ]
        ]
      },
      {
        "lengthInSteps": 16,
        "mustHitSection": false,
        "sectionNotes": [
          [
            26600.0,
            1,
            0.0
          ],
          [
            26683.334,
            3,
            0.0
          ],
          [
            26766.668,
            0,
            0.0
          ],
          [
            26850.0,
            3,
            0.0
          ],
          [
            27100.0,
            3,
            0.0
          ],
          [
            27183.334,
            1,
            0.0
          ],
          [
            27433.334,
            1,
            0.0
          ],
          [
            27683.334,
            2,
            250.0
          ]
        ]
      },
      {
        "lengthInSteps": 16,
        "mustHitSection": false,
        "sectionNotes": [
          [
            28016.668,
            2,
            0.0
          ],
          [
            28183.334,
            3,
            83.3333359
          ],
          [
            28350.0,
            1,
            0.0
          ],
          [
            28516.668,
            0,
            0.0
          ],
          [
            28683.334,
            3,
            0.0
          ],
          [
            28766.668,
            1,
            0.0
          ],
          [
            28850.0,
            0,
            0.0
          ],
          [
            29016.668,
            3,
            0.0
          ]
        ]
      },
      {
        "lengthInSteps": 16,
        "mustHitSection": true,
        "sectionNotes": [
          [
            29183.334,
            1,
            0.0
          ],
          [
            29183.334,
            6,
            333.333344
          ],
          [
            29266.668,
            3,
            0.0
          ],
          [
            29350.0,
            0,
            0.0
          ],
          [
            29433.334,
            3,
            0.0
          ],
          [
            29683.334,
            3,
            0.0
          ],
          [
            29850.0,
            1,
            0.0
          ],
          [
            30100.0,
            1,
            0.0
          ],
          [
            30350.0,
            0,
            0.0
          ]
        ]
      },
      {
        "lengthInSteps": 16,
        "mustHitSection": true,
        "sectionNotes": [
          [
            30683.334,
            2,
            0.0
          ],
          [
            30850.0,
            3,
            83.3333359
          ],
          [
            31016.668,
            1,
            0.0
          ],
          [
            31183.334,
            1,
            0.0
          ],
          [
            31433.334,
            1,
            0.0
          ],
          [
            31683.334,
            3,
            0.0
          ]
        ]
      },
      {
        "lengthInSteps": 16,
        "mustHitSection": true,
        "sectionNotes": [
          [
            31933.334,
            1,
            0.0
          ],
          [
            32016.668,
            3,
            0.0
          ],
          [
            32100.002,
            0,
            0.0
          ],
          [
            32183.334,
            3,
            0.0
          ],
          [
            32433.334,
            3,
            0.0
          ],
          [
            32516.668,
            1,
            0.0
          ],
          [
            32766.667999999998,
            1,
            0.0
          ],
          [
            33016.668,
            2,
            250.0
          ]
        ]
      },
      {
        "lengthInSteps": 16,
        "mustHitSection": true,
        "sectionNotes": [
          [
            33350.0,
            2,
            0.0
          ],
          [
            33516.668,
            3,
            83.3333359
          ],
          [
            33683.3359,
            1,
            0.0
          ],
          [
            33850.0,
            0,
            0.0
          ],
          [
            34016.668,
            3,
            0.0
          ],
          [
            34100.0,
            1,
            0.0
          ],
          [
            34183.3359,
            0,
            0.0
          ],
          [
            34350.0,
            3,
            0.0
          ]
        ]
      },
      {
        "lengthInSteps": 16,
        "mustHitSection": false,
        "sectionNotes": [
          [
            34516.668,
            2,
            666.6667
          ],
          [
            35516.668,
            1,
            0.0
          ],
          [
            35683.3359,
            3,
            0.0
          ]
        ]
      },
      {
        "lengthInSteps": 16,
        "mustHitSection": false,
        "sectionNotes": [
          [
            35850.0,
            0,
            166.666672
          ],
          [
            36183.3359,
            1,
            0.0
          ],
          [
            36516.668,
            2,
            166.666672
          ],
          [
            36850.0,
            0,
            0.0
          ],
          [
            36933.3359,
            3,
            0.0
          ],
          [
            37016.668,
            1,
            83.3333359
          ]
        ]
      },
      {
        "lengthInSteps": 16,
        "mustHitSection": false,
        "sectionNotes": [
          [
            37183.3359,
            2,
            0.0
          ],
          [
            37350.0,
            0,
            0.0
          ],
          [
            37516.668,
            3,
            0.0
          ],
          [
            37683.3359,
            0,
            0.0
          ],
          [
            37850.0,
            2,
            0.0
          ],
          [
            38016.668,
            3,
            0.0
          ],
          [
            38183.3359,
            0,
            0.0
          ],
          [
            38350.0,
            3,
            0.0
          ]
        ]
      },
      {
        "lengthInSteps": 16,
        "mustHitSection": false,
        "sectionNotes": [
          [
            38516.668,
            2,
            0.0
          ],
          [
            38683.3359,
            3,
            0.0
          ],
          [
            38850.0,
            2,
            0.0
          ],
          [
            39016.668,
            0,
            0.0
          ],
          [
            39183.3359,
            2,
            250.0
          ],
          [
            39516.668,
            1,
            250.0
          ]
        ]
      },
      {
        "lengthInSteps": 16,
        "mustHitSection": true,
        "sectionNotes": [
          [
            39850.0,
            2,
            666.6667
          ],
          [
            40850.0,
            1,
            0.0
          ],
          [
            41016.668,
            3,
            0.0
          ]
        ]
      },
      {
        "lengthInSteps": 16,
        "mustHitSection": true,
        "sectionNotes": [
          [
            41183.3359,
            0,
            166.666672
          ],
          [
            41516.668,
            1,
            0.0
          ],
          [
            41850.0,
            2,
            166.666672
          ],
          [
            42183.3359,
            0,
            0.0
          ],
          [
            42266.668,
            3,
            0.0
          ],
          [
            42350.0,
            1,
            83.3333359
          ]
        ]
      },
      {
        "lengthInSteps": 16,
        "mustHitSection": true,
        "sectionNotes": [
          [
            42516.668,
            2,
            0.0
          ],
          [
            42683.3359,
            0,
            0.0
          ],
          [
            42850.0,
            3,
            0.0
          ],
          [
            43016.668,
            0,
            0.0
          ],
          [
            43183.3359,
            2,
            0.0
          ],
          [
            43350.0,
            3,
            0.0
          ],
          [
            43516.668,
            0,
            0.0
          ],
          [
            43683.3359,
            3,
            0.0
          ]
        ]
      },
      {
        "lengthInSteps": 16,
        "mustHitSection": true,
        "sectionNotes": [
          [
            43850.0,
            2,
            0.0
          ],
          [
            44016.668,
            3,
            0.0
          ],
          [
            44183.3359,
            2,
            0.0
          ],
          [
            44350.0,
            0,
            0.0
          ],
          [
            44516.668,
            2,
            250.0
          ],
          [
            44850.0,
            1,
            250.0
          ]
        ]
      },
      {
        "lengthInSteps": 16,
        "mustHitSection": false,
        "sectionNotes": [
          [
            45183.3359,
            2,
            666.6667
          ],
          [
            46183.3359,
            1,
            0.0
          ],
          [
            46350.0,
            1,
            0.0
          ],
          [
            46433.3359,
            3,
            416.6667
          ]
        ]
      },
      {
        "lengthInSteps": 16,
        "mustHitSection": false,
        "sectionNotes": [
          [
            47016.668,
            3,
            0.0
          ],
          [
            47100.0,
            2,
            166.666672
          ],
          [
            47350.0,
            0,
            0.0
          ],
          [
            47683.3359,
            1,
            250.0
          ]
        ]
      },
      {
        "lengthInSteps": 16,
        "mustHitSection": false,
        "sectionNotes": [
          [
            48016.668,
            0,
            0.0
          ],
          [
            48100.0,
            3,
            0.0
          ],
          [
            48183.3359,
            1,
            250.0
          ],
          [
            48516.668,
            2,
            250.0
          ],
          [
            48850.0,
            0,
            0.0
          ]
        ]
      },
      {
        "lengthInSteps": 16,
        "mustHitSection": false,
        "sectionNotes": [
          [
            49183.3359,
            3,
            0.0
          ],
          [
            49350.0,
            2,
            0.0
          ],
          [
            49516.668,
            0,
            0.0
          ],
          [
            49683.3359,
            1,
            0.0
          ],
          [
            49850.0,
            3,
            0.0
          ],
          [
            50016.668,
            2,
            0.0
          ],
          [
            50183.3359,
            0,
            0.0
          ],
          [
            50350.0,
            1,
            0.0
          ]
        ]
      },
      {
        "lengthInSteps": 16,
        "mustHitSection": true,
        "sectionNotes": [
          [
            50516.668,
            2,
            666.6667
          ],
          [
            51516.668,
            1,
            0.0
          ],
          [
            51683.3359,
            1,
            0.0
          ],
          [
            51766.668,
            3,
            416.6667
          ]
        ]
      },
      {
        "lengthInSteps": 16,
        "mustHitSection": true,
        "sectionNotes": [
          [
            52350.0,
            3,
            0.0
          ],
          [
            52433.3359,
            2,
            166.666672
          ],
          [
            52683.3359,
            0,
            0.0
          ],
          [
            53016.668,
            1,
            250.0
          ]
        ]
      },
      {
        "lengthInSteps": 16,
        "mustHitSection": true,
        "sectionNotes": [
          [
            53350.0,
            0,
            0.0
          ],
          [
            53433.3359,
            3,
            0.0
          ],
          [
            53516.668,
            1,
            250.0
          ],
          [
            53850.0,
            2,
            250.0
          ],
          [
            54183.3359,
            0,
            0.0
          ]
        ]
      },
      {
        "lengthInSteps": 16,
        "mustHitSection": true,
        "sectionNotes": [
          [
            54516.668,
            3,
            0.0
          ],
          [
            54683.3359,
            2,
            0.0
          ],
          [
            54850.0,
            0,
            0.0
          ],
          [
            55016.668,
            1,
            0.0
          ],
          [
            55183.3359,
            3,
            0.0
          ],
          [
            55350.0,
            2,
            0.0
          ],
          [
            55516.668,
            0,
            0.0
          ],
          [
            55683.3359,
            1,
            0.0
          ]
        ]
      },
      {
        "lengthInSteps": 16,
        "mustHitSection": false,
        "sectionNotes": [
          [
            55850.0,
            0,
            0.0
          ],
          [
            56016.668,
            1,
            0.0
          ],
          [
            56183.3359,
            3,
            0.0
          ],
          [
            56350.0,
            1,
            0.0
          ],
          [
            56516.668,
            3,
            0.0
          ],
          [
            56683.3359,
            1,
            0.0
          ],
          [
            56850.0,
            0,
            0.0
          ],
          [
            56933.3359,
            3,
            0.0
          ],
          [
            57016.668,
            1,
            0.0
          ]
        ]
      },
      {
        "lengthInSteps": 16,
        "mustHitSection": false,
        "sectionNotes": [
          [
            57183.3359,
            0,
            0.0
          ],
          [
            57350.0,
            1,
            0.0
          ],
          [
            57516.668,
            3,
            0.0
          ],
          [
            57683.3359,
            1,
            0.0
          ],
          [
            57850.0,
            3,
            0.0
          ],
          [
            58016.668,
            1,
            0.0
          ],
          [
            58183.3359,
            0,
            0.0
          ],
          [
            58266.668,
            3,
            0.0
          ],
          [
            58350.0,
            1,
            0.0
          ]
        ]
      },
      {
        "lengthInSteps": 16,
        "mustHitSection": false,
        "sectionNotes": [
          [
            58516.668,
            2,
            0.0
          ],
          [
            58600.0,
            3,
            0.0
          ],
          [
            58683.3359,
            1,
            0.0
          ],
          [
            58850.0,
            2,
            0.0
          ],
          [
            58933.3359,
            3,
            0.0
          ],
          [
            59016.668,
            1,
            0.0
          ],
          [
            59183.3359,
            2,
            0.0
          ],
          [
            59266.668,
            3,
            0.0
          ],
          [
            59350.0,
            1,
            0.0
          ],
          [
            59516.668,
            2,
            0.0
          ],
          [
            59600.0,
            3,
            0.0
          ],
          [
            59683.3359,
            1,
            0.0
          ]
        ]
      },
      {
        "lengthInSteps": 16,
        "mustHitSection": false,
        "sectionNotes": [
          [
            59850.0,
            2,
            0.0
          ],
          [
            59933.3359,
            3,
            0.0
          ],
          [
            60016.668,
            1,
            0.0
          ],
          [
            60183.3359,
            2,
            0.0
          ],
          [
            60266.668,
            3,
            0.0
          ],
          [
            60350.0,
            1,
            0.0
          ],
          [
            60516.668,
            2,
            0.0
          ],
          [
            60600.0,
            3,
            0.0
          ],
          [
            60683.3359,
            1,
            0.0
          ],
          [
            60850.0,
            2,
            0.0
          ],
          [
            60933.3359,
            3,
            0.0
          ],
          [
            61016.668,
            1,
            0.0
          ]
        ]
      },
      {
        "lengthInSteps": 16,
        "mustHitSection": true,
        "sectionNotes": [
          [
            61183.3359,
            0,
            0.0
          ],
          [
            61350.0,
            1,
            0.0
          ],
          [
            61516.668,
            3,
            0.0
          ],
          [
            61683.3359,
            1,
            0.0
          ],
          [
            61850.0,
            3,
            0.0
          ],
          [
            62016.668,
            1,
            0.0
          ],
          [
            62183.3359,
            0,
            0.0
          ],
          [
            62266.668,
            3,
            0.0
          ],
          [
            62350.0,
            1,
            0.0
          ]
        ]
      },
      {
        "lengthInSteps": 16,
        "mustHitSection": true,
        "sectionNotes": [
          [
            62516.668,
            0,
            0.0
          ],
          [
            62683.3359,
            1,
            0.0
          ],
          [
            62850.0,
            3,
            0.0
          ],
          [
            63016.668,
            1,
            0.0
          ],
          [
            63183.3359,
            3,
            0.0
          ],
          [
            63350.0,
            1,
            0.0
          ],
          [
            63516.668,
            0,
            0.0
          ],
          [
            63600.0,
            3,
            0.0
          ],
          [
            63683.3359,
            1,
            0.0
          ]
        ]
      },
      {
        "lengthInSteps": 16,
        "mustHitSection": true,
        "sectionNotes": [
          [
            63850.0,
            2,
            0.0
          ],
          [
            63933.3359,
            3,
            0.0
          ],
          [
            64016.668,
            1,
            0.0
          ],
          [
            64183.3359,
            2,
            0.0
          ],
          [
            64266.668,
            3,
            0.0
          ],
          [
            64350.0039,
            1,
            0.0
          ],
          [
            64516.668,
            2,
            0.0
          ],
          [
            64600.0039,
            3,
            0.0
          ],
          [
            64683.3359,
            1,
            0.0
          ],
          [
            64850.0039,
            2,
            0.0
          ],
          [
            64933.3359,
            3,
            0.0
          ],
          [
            65016.668,
            1,
            0.0
          ]
        ]
      },
      {
        "lengthInSteps": 16,
        "mustHitSection": true,
        "sectionNotes": [
          [
            65183.3359,
            2,
            0.0
          ],
          [
            65266.668,
            3,
            0.0
          ],
          [
            65350.0039,
            1,
            0.0
          ],
          [
            65516.67,
            2,
            0.0
          ],
          [
            65600.0,
            3,
            0.0
          ],
          [
            65683.3359,
            1,
            0.0
          ],
          [
            65850.0,
            2,
            0.0
          ],
          [
            65933.3359,
            3,
            0.0
          ],
          [
            66016.67,
            1,
            0.0
          ],
          [
            66183.3359,
            2,
            0.0
          ],
          [
            66266.67,
            3,
            0.0
          ],
          [
            66350.0,
            1,
            0.0
          ]
        ]
      },
      {
        "lengthInSteps": 16,
        "mustHitSection": false,
        "sectionNotes": [
          [
            66516.67,
            1,
            0.0
          ],
          [
            66600.0,
            3,
            0.0
          ],
          [
            66683.3359,
            0,
            0.0
          ],
          [
            66766.67,
            3,
            0.0
          ],
          [
            67016.67,
            3,
            0.0
          ],
          [
            67183.3359,
            1,
            0.0
          ],
          [
            67433.3359,
            1,
            0.0
          ],
          [
            67683.3359,
            0,
            0.0
          ]
        ]
      },
      {
        "lengthInSteps": 16,
        "mustHitSection": false,
        "sectionNotes": [
          [
            68016.67,
            2,
            0.0
          ],
          [
            68183.3359,
            3,
            83.3333359
          ],
          [
            68350.0,
            1,
            0.0
          ],
          [
            68516.67,
            1,
            0.0
          ],
          [
            68766.67,
            1,
            0.0
          ],
          [
            69016.67,
            3,
            0.0
          ]
        ]
      },
      {
        "lengthInSteps": 16,
        "mustHitSection": false,
        "sectionNotes": [
          [
            69266.67,
            1,
            0.0
          ],
          [
            69350.0,
            3,
            0.0
          ],
          [
            69433.3359,
            0,
            0.0
          ],
          [
            69516.67,
            3,
            0.0
          ],
          [
            69766.67,
            3,
            0.0
          ],
          [
            69850.0,
            1,
            0.0
          ],
          [
            70100.0,
            1,
            0.0
          ],
          [
            70350.0,
            2,
            250.0
          ]
        ]
      },
      {
        "lengthInSteps": 16,
        "mustHitSection": false,
        "sectionNotes": [
          [
            70683.3359,
            2,
            0.0
          ],
          [
            70850.0,
            3,
            0.0
          ],
          [
            70933.3359,
            1,
            0.0
          ],
          [
            71016.67,
            0,
            0.0
          ],
          [
            71183.3359,
            1,
            0.0
          ],
          [
            71350.0,
            3,
            0.0
          ],
          [
            71433.3359,
            1,
            0.0
          ],
          [
            71516.67,
            0,
            0.0
          ],
          [
            71683.3359,
            3,
            0.0
          ]
        ]
      },
      {
        "lengthInSteps": 16,
        "mustHitSection": true,
        "sectionNotes": [
          [
            71850.0,
            1,
            0.0
          ],
          [
            71850.0,
            6,
            333.333344
          ],
          [
            71933.3359,
            3,
            0.0
          ],
          [
            72016.67,
            0,
            0.0
          ],
          [
            72100.0,
            3,
            0.0
          ],
          [
            72350.0,
            3,
            0.0
          ],
          [
            72516.67,
            1,
            0.0
          ],
          [
            72766.67,
            1,
            0.0
          ],
          [
            73016.67,
            0,
            0.0
          ]
        ]
      },
      {
        "lengthInSteps": 16,
        "mustHitSection": true,
        "sectionNotes": [
          [
            73350.0,
            2,
            0.0
          ],
          [
            73516.67,
            3,
            83.3333359
          ],
          [
            73683.3359,
            1,
            0.0
          ],
          [
            73850.0,
            1,
            0.0
          ],
          [
            74100.0,
            1,
            0.0
          ],
          [
            74350.0,
            3,
            0.0
          ]
        ]
      },
      {
        "lengthInSteps": 16,
        "mustHitSection": true,
        "sectionNotes": [
          [
            74600.0,
            1,
            0.0
          ],
          [
            74683.3359,
            3,
            0.0
          ],
          [
            74766.67,
            0,
            0.0
          ],
          [
            74850.0,
            3,
            0.0
          ],
          [
            75100.0,
            3,
            0.0
          ],
          [
            75183.3359,
            1,
            0.0
          ],
          [
            75433.3359,
            1,
            0.0
          ],
          [
            75683.3359,
            2,
            250.0
          ]
        ]
      },
      {
        "lengthInSteps": 16,
        "mustHitSection": true,
        "sectionNotes": [
          [
            76016.67,
            2,
            0.0
          ],
          [
            76183.3359,
            3,
            0.0
          ],
          [
            76266.67,
            1,
            0.0
          ],
          [
            76350.0,
            0,
            0.0
          ],
          [
            76516.67,
            1,
            0.0
          ],
          [
            76683.3359,
            3,
            0.0
          ],
          [
            76766.67,
            1,
            0.0
          ],
          [
            76850.0,
            0,
            0.0
          ],
          [
            77016.67,
            3,
            0.0
          ]
        ]
      },
      {
        "lengthInSteps": 16,
        "mustHitSection": false,
        "sectionNotes": [
          [
            77183.3359,
            6,
            666.6667
          ],
          [
            77183.3359,
            2,
            666.6667
          ],
          [
            78183.3359,
            4,
            0.0
          ],
          [
            78183.3359,
            1,
            0.0
          ],
          [
            78350.0,
            6,
            0.0
          ],
          [
            78350.0,
            3,
            0.0
          ]
        ]
      },
      {
        "lengthInSteps": 16,
        "mustHitSection": false,
        "sectionNotes": [
          [
            78516.67,
            6,
            166.666672
          ],
          [
            78516.67,
            0,
            166.666672
          ],
          [
            78850.0,
            7,
            0.0
          ],
          [
            78850.0,
            1,
            0.0
          ],
          [
            79183.3359,
            5,
            166.666672
          ],
          [
            79183.3359,
            2,
            166.666672
          ],
          [
            79516.67,
            7,
            0.0
          ],
          [
            79516.67,
            0,
            0.0
          ],
          [
            79600.0,
            4,
            0.0
          ],
          [
            79600.0,
            3,
            0.0
          ],
          [
            79683.3359,
            1,
            83.3333359
          ],
          [
            79683.3359,
            5,
            83.3333359
          ]
        ]
      },
      {
        "lengthInSteps": 16,
        "mustHitSection": false,
        "sectionNotes": [
          [
            79850.0,
            6,
            0.0
          ],
          [
            79850.0,
            2,
            0.0
          ],
          [
            80016.67,
            4,
            0.0
          ],
          [
            80016.67,
            0,
            0.0
          ],
          [
            80183.3359,
            7,
            0.0
          ],
          [
            80183.3359,
            3,
            0.0
          ],
          [
            80350.0,
            4,
            0.0
          ],
          [
            80350.0,
            0,
            0.0
          ],
          [
            80516.67,
            6,
            0.0
          ],
          [
            80516.67,
            2,
            0.0
          ],
          [
            80683.3359,
            7,
            0.0
          ],
          [
            80683.3359,
            3,
            0.0
          ],
          [
            80850.0,
            4,
            0.0
          ],
          [
            80850.0,
            0,
            0.0
          ],
          [
            81016.67,
            7,
            0.0
          ],
          [
            81016.67,
            3,
            0.0
          ]
        ]
      },
      {
        "lengthInSteps": 16,
        "mustHitSection": false,
        "sectionNotes": [
          [
            81183.3359,
            6,
            0.0
          ],
          [
            81183.3359,
            2,
            0.0
          ],
          [
            81350.0,
            7,
            0.0
          ],
          [
            81350.0,
            3,
            0.0
          ],
          [
            81516.67,
            6,
            0.0
          ],
          [
            81516.67,
            2,
            0.0
          ],
          [
            81683.3359,
            4,
            0.0
          ],
          [
            81683.3359,
            0,
            0.0
          ],
          [
            81850.0,
            6,
            250.0
          ],
          [
            81850.0,
            2,
            250.0
          ],
          [
            82183.3359,
            5,
            250.0
          ],
          [
            82183.3359,
            1,
            250.0
          ]
        ]
      },
      {
        "lengthInSteps": 16,
        "mustHitSection": false,
        "sectionNotes": [
          [
            82516.67,
            6,
            666.6667
          ],
          [
            82516.67,
            0,
            250.0
          ],
          [
            82850.0,
            1,
            250.0
          ],
          [
            83183.3359,
            3,
            250.0
          ],
          [
            83516.67,
            1,
            250.0
          ],
          [
            83516.67,
            5,
            0.0
          ],
          [
            83683.3359,
            7,
            0.0
          ]
        ]
      },
      {
        "lengthInSteps": 16,
        "mustHitSection": false,
        "sectionNotes": [
          [
            83850.0,
            2,
            250.0
          ],
          [
            83850.0,
            4,
            166.666672
          ],
          [
            84183.3359,
            1,
            250.0
          ],
          [
            84183.3359,
            5,
            0.0
          ],
          [
            84516.67,
            3,
            250.0
          ],
          [
            84516.67,
            6,
            166.666672
          ],
          [
            84850.0,
            1,
            250.0
          ],
          [
            84850.0,
            4,
            0.0
          ],
          [
            84933.3359,
            7,
            0.0
          ],
          [
            85016.67,
            5,
            83.3333359
          ]
        ]
      },
      {
        "lengthInSteps": 16,
        "mustHitSection": false,
        "sectionNotes": [
          [
            85183.3359,
            1,
            250.0
          ],
          [
            85183.3359,
            6,
            0.0
          ],
          [
            85350.0,
            4,
            0.0
          ],
          [
            85516.67,
            3,
            250.0
          ],
          [
            85516.67,
            7,
            0.0
          ],
          [
            85683.3359,
            4,
            0.0
          ],
          [
            85850.0,
            0,
            250.0
          ],
          [
            85850.0,
            6,
            0.0
          ],
          [
            86016.67,
            7,
            0.0
          ],
          [
            86183.3359,
            3,
            250.0
          ],
          [
            86183.3359,
            4,
            0.0
          ],
          [
            86350.0,
            7,
            0.0
          ]
        ]
      },
      {
        "lengthInSteps": 16,
        "mustHitSection": true,
        "sectionNotes": [
          [
            86516.67,
            6,
            250.0
          ],
          [
            86516.67,
            2,
            0.0
          ],
          [
            86683.3359,
            3,
            0.0
          ],
          [
            86850.0,
            7,
            250.0
          ],
          [
            86850.0,
            2,
            0.0
          ],
          [
            87016.67,
            0,
            0.0
          ],
          [
            87183.3359,
            6,
            250.0
          ],
          [
            87183.3359,
            2,
            250.0
          ],
          [
            87516.67,
            5,
            250.0
          ],
          [
            87516.67,
            1,
            250.0
          ]
        ]
      },
      {
        "lengthInSteps": 16,
        "mustHitSection": false,
        "sectionNotes": [
          [
            87850.0,
            5,
            0.0
          ],
          [
            87850.0,
            1,
            0.0
          ],
          [
            88183.3359,
            1,
            0.0
          ],
          [
            88516.67,
            1,
            0.0
          ],
          [
            88683.3359,
            0,
            0.0
          ],
          [
            88766.67,
            3,
            0.0
          ],
          [
            88850.0,
            2,
            0.0
          ],
          [
            89016.67,
            1,
            0.0
          ]
        ]
      },
      {
        "lengthInSteps": 16,
        "mustHitSection": false,
        "sectionNotes": [
          [
            89350.0,
            1,
            0.0
          ],
          [
            89683.3359,
            1,
            0.0
          ],
          [
            90016.67,
            3,
            0.0
          ],
          [
            90100.0,
            0,
            0.0
          ],
          [
            90183.3359,
            2,
            250.0
          ]
        ]
      },
      {
        "lengthInSteps": 16,
        "mustHitSection": false,
        "sectionNotes": [
          [
            90516.67,
            1,
            0.0
          ],
          [
            90850.0,
            1,
            0.0
          ],
          [
            91183.3359,
            1,
            0.0
          ],
          [
            91350.0,
            3,
            0.0
          ],
          [
            91433.3359,
            0,
            0.0
          ],
          [
            91516.67,
            2,
            0.0
          ],
          [
            91683.3359,
            1,
            0.0
          ]
        ]
      },
      {
        "lengthInSteps": 16,
        "mustHitSection": false,
        "sectionNotes": [
          [
            91850.0,
            0,
            0.0
          ],
          [
            92016.67,
            1,
            0.0
          ],
          [
            92183.3359,
            2,
            0.0
          ],
          [
            92350.0,
            1,
            0.0
          ],
          [
            92516.67,
            3,
            0.0
          ],
          [
            92683.3359,
            1,
            0.0
          ],
          [
            92766.67,
            2,
            0.0
          ],
          [
            92850.0,
            3,
            0.0
          ],
          [
            93016.67,
            0,
            0.0
          ]
        ]
      },
      {
        "lengthInSteps": 16,
        "mustHitSection": true,
        "sectionNotes": [
          [
            93183.3359,
            1,
            0.0
          ],
          [
            93183.3359,
            5,
            0.0
          ],
          [
            93516.67,
            1,
            0.0
          ],
          [
            93516.67,
            5,
            0.0
          ],
          [
            93850.0,
            1,
            0.0
          ],
          [
            93850.0,
            5,
            0.0
          ],
          [
            94016.67,
            0,
            0.0
          ],
          [
            94016.67,
            4,
            0.0
          ],
          [
            94100.0,
            3,
            0.0
          ],
          [
            94100.0,
            7,
            0.0
          ],
          [
            94183.3359,
            6,
            0.0
          ],
          [
            94183.3359,
            2,
            0.0
          ],
          [
            94350.0,
            1,
            0.0
          ],
          [
            94350.0,
            5,
            0.0
          ]
        ]
      },
      {
        "lengthInSteps": 16,
        "mustHitSection": true,
        "sectionNotes": [
          [
            94683.3359,
            1,
            0.0
          ],
          [
            94683.3359,
            5,
            0.0
          ],
          [
            95016.67,
            1,
            0.0
          ],
          [
            95016.67,
            5,
            0.0
          ],
          [
            95350.0,
            3,
            0.0
          ],
          [
            95350.0,
            7,
            0.0
          ],
          [
            95433.3359,
            0,
            0.0
          ],
          [
            95433.3359,
            4,
            0.0
          ],
          [
            95516.67,
            2,
            250.0
          ],
          [
            95516.67,
            6,
            250.0
          ]
        ]
      },
      {
        "lengthInSteps": 16,
        "mustHitSection": true,
        "sectionNotes": [
          [
            95850.0,
            1,
            0.0
          ],
          [
            95850.0,
            5,
            0.0
          ],
          [
            96183.3359,
            1,
            0.0
          ],
          [
            96183.3359,
            5,
            0.0
          ],
          [
            96516.67,
            1,
            0.0
          ],
          [
            96516.67,
            5,
            0.0
          ],
          [
            96683.3359,
            3,
            0.0
          ],
          [
            96683.3359,
            7,
            0.0
          ],
          [
            96766.67,
            0,
            0.0
          ],
          [
            96766.67,
            4,
            0.0
          ],
          [
            96850.0,
            2,
            0.0
          ],
          [
            96850.0,
            6,
            0.0
          ],
          [
            97016.67,
            1,
            0.0
          ],
          [
            97016.67,
            5,
            0.0
          ]
        ]
      },
      {
        "lengthInSteps": 16,
        "mustHitSection": true,
        "sectionNotes": [
          [
            97183.3359,
            0,
            0.0
          ],
          [
            97183.3359,
            4,
            0.0
          ],
          [
            97350.0,
            1,
            0.0
          ],
          [
            97350.0,
            5,
            0.0
          ],
          [
            97516.67,
            2,
            0.0
          ],
          [
            97516.67,
            6,
            0.0
          ],
          [
            97683.3359,
            1,
            0.0
          ],
          [
            97683.3359,
            5,
            0.0
          ],
          [
            97850.0,
            3,
            0.0
          ],
          [
            97850.0,
            7,
            0.0
          ],
          [
            98016.67,
            1,
            0.0
          ],
          [
            98016.67,
            5,
            0.0
          ],
          [
            98100.0,
            2,
            0.0
          ],
          [
            98100.0,
            6,
            0.0
          ],
          [
            98183.3359,
            3,
            0.0
          ],
          [
            98183.3359,
            7,
            0.0
          ],
          [
            98350.0,
            0,
            0.0
          ],
          [
            98350.0,
            4,
            0.0
          ]
        ]
      },
      {
        "lengthInSteps": 16,
        "mustHitSection": false,
        "sectionNotes": [
          [
            98516.67,
            2,
            666.6667
          ],
          [
            98516.67,
            6,
            666.6667
          ],
          [
            99516.67,
            1,
            0.0
          ],
          [
            99683.3359,
            1,
            0.0
          ],
          [
            99766.67,
            3,
            416.6667
          ]
        ]
      },
      {
        "lengthInSteps": 16,
        "mustHitSection": false,
        "sectionNotes": [
          [
            100350.0,
            3,
            0.0
          ],
          [
            100433.336,
            2,
            166.666672
          ],
          [
            100683.336,
            0,
            0.0
          ],
          [
            101016.672,
            1,
            250.0
          ]
        ]
      },
      {
        "lengthInSteps": 16,
        "mustHitSection": false,
        "sectionNotes": [
          [
            101350.0,
            0,
            0.0
          ],
          [
            101433.336,
            3,
            0.0
          ],
          [
            101516.672,
            1,
            250.0
          ],
          [
            101850.0,
            2,
            250.0
          ],
          [
            102183.336,
            0,
            0.0
          ]
        ]
      },
      {
        "lengthInSteps": 16,
        "mustHitSection": false,
        "sectionNotes": [
          [
            102516.672,
            3,
            0.0
          ],
          [
            102683.336,
            3,
            0.0
          ],
          [
            102766.672,
            2,
            0.0
          ],
          [
            102850.0,
            0,
            0.0
          ],
          [
            103016.672,
            1,
            0.0
          ],
          [
            103183.336,
            3,
            0.0
          ],
          [
            103350.0,
            2,
            0.0
          ],
          [
            103516.672,
            0,
            0.0
          ],
          [
            103683.336,
            1,
            0.0
          ]
        ]
      },
      {
        "lengthInSteps": 16,
        "mustHitSection": true,
        "sectionNotes": [
          [
            103850.0,
            2,
            666.6667
          ],
          [
            103850.0,
            6,
            666.6667
          ],
          [
            104850.0,
            1,
            0.0
          ],
          [
            105016.672,
            1,
            0.0
          ],
          [
            105100.0,
            3,
            333.333344
          ]
        ]
      },
      {
        "lengthInSteps": 16,
        "mustHitSection": true,
        "sectionNotes": [
          [
            105683.336,
            3,
            0.0
          ],
          [
            105766.672,
            2,
            166.666672
          ],
          [
            106016.672,
            0,
            0.0
          ],
          [
            106350.0,
            1,
            250.0
          ]
        ]
      },
      {
        "lengthInSteps": 16,
        "mustHitSection": true,
        "sectionNotes": [
          [
            106683.336,
            0,
            0.0
          ],
          [
            106766.672,
            3,
            0.0
          ],
          [
            106850.0,
            1,
            250.0
          ],
          [
            107183.336,
            2,
            250.0
          ],
          [
            107516.672,
            0,
            0.0
          ]
        ]
      },
      {
        "lengthInSteps": 16,
        "mustHitSection": true,
        "sectionNotes": [
          [
            107850.0,
            3,
            0.0
          ],
          [
            108016.672,
            3,
            0.0
          ],
          [
            108100.0,
            2,
            0.0
          ],
          [
            108183.336,
            0,
            0.0
          ],
          [
            108350.0,
            1,
            0.0
          ],
          [
            108516.672,
            3,
            0.0
          ],
          [
            108683.336,
            2,
            0.0
          ],
          [
            108850.0,
            0,
            0.0
          ],
          [
            109016.672,
            1,
            0.0
          ]
        ]
      },
      {
        "lengthInSteps": 16,
        "mustHitSection": false,
        "sectionNotes": [
          [
            109183.336,
            1,
            0.0
          ],
          [
            109266.672,
            3,
            0.0
          ],
          [
            109350.0,
            0,
            0.0
          ],
          [
            109433.336,
            3,
            0.0
          ],
          [
            109683.336,
            3,
            0.0
          ],
          [
            109850.0,
            1,
            0.0
          ],
          [
            110100.0,
            1,
            0.0
          ],
          [
            110350.0,
            0,
            0.0
          ]
        ]
      },
      {
        "lengthInSteps": 16,
        "mustHitSection": false,
        "sectionNotes": [
          [
            110683.336,
            2,
            0.0
          ],
          [
            110850.0,
            3,
            83.3333359
          ],
          [
            111016.672,
            1,
            0.0
          ],
          [
            111183.336,
            1,
            0.0
          ],
          [
            111433.336,
            1,
            0.0
          ],
          [
            111683.336,
            3,
            0.0
          ]
        ]
      },
      {
        "lengthInSteps": 16,
        "mustHitSection": false,
        "sectionNotes": [
          [
            111933.336,
            1,
            0.0
          ],
          [
            112016.672,
            3,
            0.0
          ],
          [
            112100.0,
            0,
            0.0
          ],
          [
            112183.336,
            3,
            0.0
          ],
          [
            112433.336,
            3,
            0.0
          ],
          [
            112516.672,
            1,
            0.0
          ],
          [
            112766.672,
            1,
            0.0
          ],
          [
            113016.672,
            2,
            250.0
          ]
        ]
      },
      {
        "lengthInSteps": 16,
        "mustHitSection": false,
        "sectionNotes": [
          [
            113350.0,
            2,
            0.0
          ],
          [
            113516.672,
            3,
            0.0
          ],
          [
            113600.0,
            1,
            0.0
          ],
          [
            113683.336,
            0,
            0.0
          ],
          [
            113850.0,
            1,
            0.0
          ],
          [
            114016.672,
            3,
            0.0
          ],
          [
            114100.0,
            1,
            0.0
          ],
          [
            114183.336,
            0,
            0.0
          ],
          [
            114350.0,
            3,
            0.0
          ]
        ]
      },
      {
        "lengthInSteps": 16,
        "mustHitSection": true,
        "sectionNotes": [
          [
            114516.672,
            1,
            0.0
          ],
          [
            114516.672,
            6,
            333.333344
          ],
          [
            114600.0,
            3,
            0.0
          ],
          [
            114683.336,
            0,
            0.0
          ],
          [
            114766.672,
            3,
            0.0
          ],
          [
            115016.672,
            3,
            0.0
          ],
          [
            115183.336,
            1,
            0.0
          ],
          [
            115433.336,
            1,
            0.0
          ],
          [
            115683.336,
            0,
            0.0
          ]
        ]
      },
      {
        "lengthInSteps": 16,
        "mustHitSection": true,
        "sectionNotes": [
          [
            116016.672,
            2,
            0.0
          ],
          [
            116183.336,
            3,
            83.3333359
          ],
          [
            116350.0,
            1,
            0.0
          ],
          [
            116516.672,
            1,
            0.0
          ],
          [
            116766.672,
            1,
            0.0
          ],
          [
            117016.672,
            3,
            0.0
          ]
        ]
      },
      {
        "lengthInSteps": 16,
        "mustHitSection": true,
        "sectionNotes": [
          [
            117266.672,
            1,
            0.0
          ],
          [
            117350.0,
            3,
            0.0
          ],
          [
            117433.336,
            0,
            0.0
          ],
          [
            117516.672,
            3,
            0.0
          ],
          [
            117766.672,
            3,
            0.0
          ],
          [
            117850.0,
            1,
            0.0
          ],
          [
            118100.0,
            1,
            0.0
          ],
          [
            118350.0,
            2,
            250.0
          ]
        ]
      },
      {
        "lengthInSteps": 16,
        "mustHitSection": true,
        "sectionNotes": [
          [
            118683.336,
            2,
            0.0
          ],
          [
            118850.0,
            3,
            0.0
          ],
          [
            118933.336,
            1,
            0.0
          ],
          [
            119016.672,
            0,
            0.0
          ],
          [
            119183.336,
            1,
            0.0
          ],
          [
            119350.0,
            3,
            0.0
          ],
          [
            119433.336,
            1,
            0.0
          ],
          [
            119516.672,
            0,
            0.0
          ],
          [
            119683.336,
            3,
            0.0
          ]
        ]
      },
      {
        "lengthInSteps": 16,
        "mustHitSection": true,
        "sectionNotes": [
          [
            119850.0,
            2,
            833.3334
          ]
        ]
      },
      {
        "lengthInSteps": 16,
        "mustHitSection": true,
        "sectionNotes": []
      },
      {
        "lengthInSteps": 16,
        "mustHitSection": true,
        "sectionNotes": []
      },
      {
        "lengthInSteps": 16,
        "mustHitSection": true,
        "sectionNotes": []
      }
    ]
  },
  "generatedBy": "SNIFF ver.6"
}