{
  "song": {
    "song": "Satin Panties",
    "bpm": 110.0,
    "needsVoices": true,
    "player1": "bf-car",
    "player2": "mom-car",
    "speed": 1.8,
    "notes": [
      {
        "lengthInSteps": 16,
        "mustHitSection": false,
        "sectionNotes": [
          [
            400.0,
            0,
            0.0
          ],
          [
            672.727264,
            0,
            0.0
          ],
          [
            945.4545,
            0,
            0.0
          ],
          [
            1218.181763,
            0,
            0.0
          ],
          [
            1354.5454,
            0,
            0.0
          ],
          [
            1627.27271,
            0,
            0.0
          ],
          [
            1763.63635,
            0,
            0.0
          ],
          [
            2036.36353,
            0,
            0.0
          ],
          [
            2309.09082,
            0,
            0.0
          ],
          [
            2445.4544699999997,
            0,
            0.0
          ]
        ]
      },
      {
        "lengthInSteps": 16,
        "mustHitSection": true,
        "sectionNotes": [
          [
            2581.818,
            3,
            0.0
          ],
          [
            2854.54541,
            3,
            0.0
          ],
          [
            3127.27271,
            3,
            0.0
          ],
          [
            3400.0,
            3,
            0.0
          ],
          [
            3536.36353,
            3,
            0.0
          ],
          [
            3809.09082,
            3,
            0.0
          ],
          [
            3945.45435,
            3,
            0.0
          ],
          [
            4218.18164,
            3,
            0.0
          ],
          [
            4490.909,
            3,
            0.0
          ],
          [
            4627.27246,
            3,
            0.0
          ]
        ]
      },
      {
        "lengthInSteps": 16,
        "mustHitSection": false,
        "sectionNotes": [
          [
            5036.36328,
            2,
            0.0
          ],
          [
            5309.091,
            3,
            0.0
          ],
          [
            5581.818,
            2,
            0.0
          ],
          [
            5718.18164,
            3,
            0.0
          ],
          [
            5990.90869,
            0,
            0.0
          ],
          [
            6263.636,
            2,
            0.0
          ],
          [
            6400.0,
            3,
            0.0
          ],
          [
            6672.727,
            0,
            0.0
          ],
          [
            6809.091,
            3,
            0.0
          ]
        ]
      },
      {
        "lengthInSteps": 16,
        "mustHitSection": false,
        "sectionNotes": [
          [
            7218.18164,
            2,
            0.0
          ],
          [
            7490.90869,
            3,
            0.0
          ],
          [
            7763.636,
            2,
            0.0
          ],
          [
            7900.0,
            3,
            0.0
          ],
          [
            8172.727,
            0,
            0.0
          ],
          [
            8445.454,
            2,
            0.0
          ],
          [
            8581.818,
            3,
            0.0
          ],
          [
            8718.182,
            0,
            0.0
          ],
          [
            8854.545,
            1,
            0.0
          ]
        ]
      },
      {
        "lengthInSteps": 16,
        "mustHitSection": true,
        "sectionNotes": [
          [
            9127.272,
            6,
            545.4545
          ],
          [
            9400.0,
            2,
            0.0
          ],
          [
            9672.727,
            3,
            0.0
          ],
          [
            9945.454,
            2,
            0.0
          ],
          [
            10081.818,
            3,
            0.0
          ],
          [
            10354.545,
            0,
            0.0
          ],
          [
            10627.2725,
            2,
            0.0
          ],
          [
            10763.6357,
            3,
            0.0
          ],
          [
            11036.3633,
            0,
            0.0
          ],
          [
            11172.7266,
            3,
            0.0
          ]
        ]
      },
      {
        "lengthInSteps": 16,
        "mustHitSection": true,
        "sectionNotes": [
          [
            11581.8174,
            2,
            0.0
          ],
          [
            11854.5449,
            3,
            0.0
          ],
          [
            12127.2725,
            2,
            0.0
          ],
          [
            12263.6357,
            3,
            0.0
          ],
          [
            12536.3633,
            0,
            0.0
          ],
          [
            12809.0908,
            2,
            0.0
          ],
          [
            12945.4541,
            3,
            0.0
          ],
          [
            13081.8174,
            0,
            0.0
          ],
          [
            13218.1816,
            1,
            0.0
          ]
        ]
      },
      {
        "lengthInSteps": 16,
        "mustHitSection": false,
        "sectionNotes": [
          [
            13490.9082,
            6,
            545.4545
          ],
          [
            13763.6357,
            1,
            0.0
          ],
          [
            13900.0,
            1,
            0.0
          ],
          [
            14036.3633,
            0,
            0.0
          ],
          [
            14309.0908,
            0,
            0.0
          ],
          [
            14445.4541,
            3,
            0.0
          ],
          [
            14581.8174,
            2,
            272.727264
          ],
          [
            14990.9082,
            3,
            0.0
          ],
          [
            15127.2725,
            0,
            0.0
          ],
          [
            15400.0,
            1,
            0.0
          ]
        ]
      },
      {
        "lengthInSteps": 16,
        "mustHitSection": false,
        "sectionNotes": [
          [
            15672.7266,
            3,
            272.727264
          ],
          [
            16081.8174,
            0,
            0.0
          ],
          [
            16354.5449,
            0,
            0.0
          ],
          [
            16490.908199999998,
            0,
            0.0
          ],
          [
            16627.2725,
            0,
            0.0
          ],
          [
            16763.6357,
            2,
            272.727264
          ],
          [
            17172.7266,
            3,
            0.0
          ],
          [
            17309.09,
            0,
            0.0
          ],
          [
            17445.4531,
            1,
            0.0
          ],
          [
            17581.8184,
            0,
            0.0
          ]
        ]
      },
      {
        "lengthInSteps": 16,
        "mustHitSection": true,
        "sectionNotes": [
          [
            17854.5449,
            6,
            545.4545
          ],
          [
            18127.2715,
            1,
            0.0
          ],
          [
            18263.6367,
            1,
            0.0
          ],
          [
            18400.0,
            0,
            0.0
          ],
          [
            18672.7266,
            0,
            0.0
          ],
          [
            18809.09,
            3,
            0.0
          ],
          [
            18945.4531,
            2,
            272.727264
          ],
          [
            19354.5449,
            3,
            0.0
          ],
          [
            19490.9082,
            0,
            0.0
          ],
          [
            19763.6367,
            1,
            0.0
          ]
        ]
      },
      {
        "lengthInSteps": 16,
        "mustHitSection": true,
        "sectionNotes": [
          [
            20036.3633,
            3,
            272.727264
          ],
          [
            20445.4531,
            0,
            0.0
          ],
          [
            20718.1816,
            0,
            0.0
          ],
          [
            20854.5449,
            0,
            0.0
          ],
          [
            20990.9082,
            0,
            0.0
          ],
          [
            21127.2715,
            2,
            272.727264
          ],
          [
            21536.3633,
            3,
            0.0
          ],
          [
            21672.7266,
            0,
            0.0
          ],
          [
            21809.09,
            1,
            0.0
          ],
          [
            21945.4531,
            0,
            0.0
          ]
        ]
      },
      {
        "lengthInSteps": 16,
        "mustHitSection": false,
        "sectionNotes": [
          [
            22218.1816,
            6,
            409.090881
          ],
          [
            22218.1816,
            2,
            409.090881
          ],
          [
            22763.6348,
            7,
            0.0
          ],
          [
            22763.6348,
            3,
            0.0
          ],
          [
            22900.0,
            6,
            0.0
          ],
          [
            22900.0,
            2,
            0.0
          ],
          [
            23036.3633,
            7,
            0.0
          ],
          [
            23036.3633,
            3,
            0.0
          ],
          [
            23172.7266,
            6,
            0.0
          ],
          [
            23172.7266,
            2,
            0.0
          ],
          [
            23309.09,
            4,
            0.0
          ],
          [
            23309.09,
            0,
            0.0
          ],
          [
            23445.4531,
            5,
            0.0
          ],
          [
            23445.4531,
            1,
            0.0
          ],
          [
            23581.8184,
            4,
            0.0
          ],
          [
            23581.8184,
            0,
            0.0
          ],
          [
            23718.1816,
            5,
            0.0
          ],
          [
            23718.1816,
            1,
            0.0
          ],
          [
            23854.5449,
            4,
            0.0
          ],
          [
            23854.5449,
            0,
            0.0
          ],
          [
            23990.9082,
            7,
            0.0
          ],
          [
            23990.9082,
            3,
            0.0
          ],
          [
            24127.2715,
            4,
            0.0
          ],
          [
            24127.2715,
            0,
            0.0
          ],
          [
            24263.6348,
            7,
            0.0
          ],
          [
            24263.6348,
            3,
            0.0
          ]
        ]
      },
      {
        "lengthInSteps": 16,
        "mustHitSection": false,
        "sectionNotes": [
          [
            24400.0,
            1,
            409.090881
          ],
          [
            24400.0,
            5,
            409.090881
          ],
          [
            24945.4531,
            4,
            0.0
          ],
          [
            24945.4531,
            0,
            0.0
          ],
          [
            25081.8184,
            7,
            0.0
          ],
          [
            25081.8184,
            3,
            0.0
          ],
          [
            25218.1816,
            4,
            0.0
          ],
          [
            25218.1816,
            0,
            0.0
          ],
          [
            25354.5449,
            7,
            0.0
          ],
          [
            25354.5449,
            3,
            0.0
          ],
          [
            25490.9082,
            6,
            136.363632
          ],
          [
            25490.9082,
            2,
            136.363632
          ],
          [
            25763.6348,
            7,
            0.0
          ],
          [
            25763.6348,
            3,
            0.0
          ],
          [
            26036.3633,
            7,
            0.0
          ],
          [
            26036.3633,
            3,
            0.0
          ],
          [
            26309.09,
            5,
            0.0
          ],
          [
            26309.09,
            1,
            0.0
          ]
        ]
      },
      {
        "lengthInSteps": 16,
        "mustHitSection": true,
        "sectionNotes": [
          [
            26581.8164,
            4,
            409.090881
          ],
          [
            26581.8164,
            3,
            409.090881
          ],
          [
            27127.2715,
            0,
            409.090881
          ],
          [
            27127.2715,
            7,
            409.090881
          ],
          [
            27672.7266,
            6,
            0.0
          ],
          [
            27672.7266,
            2,
            0.0
          ],
          [
            27945.4531,
            6,
            0.0
          ],
          [
            27945.4531,
            2,
            0.0
          ],
          [
            28081.8164,
            6,
            0.0
          ],
          [
            28081.8164,
            2,
            0.0
          ],
          [
            28218.1816,
            7,
            409.090881
          ],
          [
            28218.1816,
            0,
            409.090881
          ]
        ]
      },
      {
        "lengthInSteps": 16,
        "mustHitSection": true,
        "sectionNotes": [
          [
            28763.6348,
            5,
            409.090881
          ],
          [
            28763.6348,
            1,
            409.090881
          ],
          [
            29309.09,
            7,
            409.090881
          ],
          [
            29309.09,
            3,
            409.090881
          ],
          [
            29854.5449,
            6,
            409.090881
          ],
          [
            29854.5449,
            2,
            409.090881
          ],
          [
            30400.0,
            4,
            0.0
          ],
          [
            30400.0,
            0,
            0.0
          ],
          [
            30672.7266,
            7,
            409.090881
          ],
          [
            30672.7266,
            3,
            0.0
          ]
        ]
      },
      {
        "lengthInSteps": 16,
        "mustHitSection": false,
        "sectionNotes": [
          [
            30945.4531,
            5,
            545.4545
          ],
          [
            31218.1816,
            2,
            0.0
          ],
          [
            31354.5449,
            3,
            0.0
          ],
          [
            31490.9082,
            0,
            0.0
          ],
          [
            31763.6348,
            1,
            0.0
          ],
          [
            32036.3633,
            3,
            0.0
          ],
          [
            32172.7266,
            0,
            0.0
          ],
          [
            32309.09,
            3,
            0.0
          ],
          [
            32581.8164,
            3,
            0.0
          ],
          [
            32718.1816,
            0,
            0.0
          ],
          [
            32854.5449,
            1,
            0.0
          ]
        ]
      },
      {
        "lengthInSteps": 16,
        "mustHitSection": false,
        "sectionNotes": [
          [
            33400.0,
            1,
            0.0
          ],
          [
            33536.3633,
            3,
            0.0
          ],
          [
            33672.7266,
            0,
            136.363632
          ],
          [
            33945.4531,
            1,
            0.0
          ],
          [
            34218.18,
            2,
            0.0
          ],
          [
            34354.543,
            3,
            0.0
          ],
          [
            34490.9063,
            0,
            0.0
          ],
          [
            34627.2734,
            0,
            0.0
          ],
          [
            34763.6367,
            3,
            0.0
          ],
          [
            34900.0,
            0,
            0.0
          ],
          [
            35036.3633,
            0,
            0.0
          ],
          [
            35172.7266,
            1,
            0.0
          ]
        ]
      },
      {
        "lengthInSteps": 16,
        "mustHitSection": true,
        "sectionNotes": [
          [
            35309.09,
            7,
            0.0
          ],
          [
            35445.4531,
            6,
            0.0
          ],
          [
            35581.8164,
            2,
            0.0
          ],
          [
            35581.8164,
            7,
            0.0
          ],
          [
            35718.18,
            3,
            0.0
          ],
          [
            35854.543,
            0,
            0.0
          ],
          [
            36127.2734,
            1,
            0.0
          ],
          [
            36400.0,
            3,
            0.0
          ],
          [
            36536.3633,
            0,
            0.0
          ],
          [
            36672.7266,
            3,
            0.0
          ],
          [
            36945.4531,
            3,
            0.0
          ],
          [
            37081.8164,
            0,
            0.0
          ],
          [
            37218.18,
            1,
            0.0
          ]
        ]
      },
      {
        "lengthInSteps": 16,
        "mustHitSection": true,
        "sectionNotes": [
          [
            37763.6367,
            1,
            0.0
          ],
          [
            37900.0,
            3,
            0.0
          ],
          [
            38036.3633,
            0,
            136.363632
          ],
          [
            38309.09,
            1,
            0.0
          ],
          [
            38581.8164,
            2,
            0.0
          ],
          [
            38718.18,
            3,
            0.0
          ],
          [
            38854.543,
            0,
            0.0
          ],
          [
            38990.9063,
            0,
            0.0
          ],
          [
            39127.2734,
            7,
            0.0
          ],
          [
            39127.2734,
            3,
            0.0
          ],
          [
            39263.6367,
            4,
            0.0
          ],
          [
            39263.6367,
            0,
            0.0
          ],
          [
            39400.0,
            5,
            0.0
          ],
          [
            39400.0,
            0,
            0.0
          ],
          [
            39536.3633,
            7,
            0.0
          ],
          [
            39536.3633,
            1,
            0.0
          ]
        ]
      },
      {
        "lengthInSteps": 16,
        "mustHitSection": false,
        "sectionNotes": [
          [
            39672.7266,
            2,
            136.363632
          ],
          [
            39672.7266,
            7,
            0.0
          ],
          [
            39809.09,
            6,
            0.0
          ],
          [
            39945.4531,
            7,
            0.0
          ],
          [
            39945.4531,
            2,
            0.0
          ],
          [
            40081.8164,
            3,
            0.0
          ],
          [
            40218.18,
            0,
            0.0
          ],
          [
            40354.543,
            1,
            0.0
          ],
          [
            40490.9063,
            3,
            0.0
          ],
          [
            40627.2734,
            1,
            0.0
          ],
          [
            40763.6367,
            3,
            0.0
          ],
          [
            40900.0,
            0,
            0.0
          ],
          [
            41036.3633,
            3,
            0.0
          ],
          [
            41172.7266,
            1,
            0.0
          ],
          [
            41309.09,
            3,
            0.0
          ],
          [
            41445.4531,
            0,
            0.0
          ],
          [
            41581.8164,
            1,
            0.0
          ]
        ]
      },
      {
        "lengthInSteps": 16,
        "mustHitSection": false,
        "sectionNotes": [
          [
            41854.543,
            0,
            0.0
          ],
          [
            42127.27,
            1,
            0.0
          ],
          [
            42263.6367,
            3,
            0.0
          ],
          [
            42400.0,
            0,
            136.363632
          ],
          [
            42672.7266,
            1,
            0.0
          ],
          [
            42945.4531,
            2,
            0.0
          ],
          [
            43081.8164,
            3,
            0.0
          ],
          [
            43218.18,
            0,
            0.0
          ],
          [
            43354.543,
            0,
            0.0
          ],
          [
            43490.9063,
            7,
            0.0
          ],
          [
            43490.9063,
            3,
            0.0
          ],
          [
            43627.27,
            4,
            0.0
          ],
          [
            43627.27,
            0,
            0.0
          ],
          [
            43763.6367,
            5,
            0.0
          ],
          [
            43763.6367,
            0,
            0.0
          ],
          [
            43900.0,
            7,
            0.0
          ],
          [
            43900.0,
            1,
            0.0
          ]
        ]
      },
      {
        "lengthInSteps": 16,
        "mustHitSection": true,
        "sectionNotes": [
          [
            44036.3633,
            2,
            136.363632
          ],
          [
            44309.09,
            2,
            0.0
          ],
          [
            44445.4531,
            3,
            0.0
          ],
          [
            44581.8164,
            0,
            0.0
          ],
          [
            44718.18,
            1,
            0.0
          ],
          [
            44854.543,
            3,
            0.0
          ],
          [
            44990.9063,
            1,
            0.0
          ],
          [
            45127.27,
            3,
            0.0
          ],
          [
            45263.6367,
            0,
            0.0
          ],
          [
            45400.0,
            3,
            0.0
          ],
          [
            45536.3633,
            1,
            0.0
          ],
          [
            45672.7266,
            3,
            0.0
          ],
          [
            45809.09,
            0,
            0.0
          ],
          [
            45945.4531,
            1,
            0.0
          ]
        ]
      },
      {
        "lengthInSteps": 16,
        "mustHitSection": true,
        "sectionNotes": [
          [
            46218.18,
            0,
            0.0
          ],
          [
            46490.9063,
            1,
            0.0
          ],
          [
            46627.27,
            3,
            0.0
          ],
          [
            46763.6367,
            0,
            136.363632
          ],
          [
            47036.3633,
            1,
            0.0
          ],
          [
            47309.09,
            2,
            0.0
          ],
          [
            47445.4531,
            3,
            0.0
          ],
          [
            47581.8164,
            0,
            0.0
          ],
          [
            47718.18,
            0,
            0.0
          ],
          [
            47854.543,
            3,
            0.0
          ],
          [
            47990.9063,
            0,
            0.0
          ],
          [
            48127.27,
            0,
            0.0
          ],
          [
            48263.6367,
            1,
            0.0
          ]
        ]
      },
      {
        "lengthInSteps": 16,
        "mustHitSection": false,
        "sectionNotes": [
          [
            48672.7266,
            2,
            0.0
          ],
          [
            48809.09,
            3,
            0.0
          ],
          [
            48945.4531,
            0,
            0.0
          ],
          [
            49081.8164,
            3,
            0.0
          ],
          [
            49218.18,
            0,
            0.0
          ],
          [
            49354.543,
            2,
            0.0
          ],
          [
            49490.9063,
            3,
            0.0
          ],
          [
            49763.6367,
            3,
            0.0
          ],
          [
            50036.3633,
            1,
            0.0
          ],
          [
            50309.09,
            0,
            0.0
          ]
        ]
      },
      {
        "lengthInSteps": 16,
        "mustHitSection": false,
        "sectionNotes": [
          [
            50854.543,
            3,
            0.0
          ],
          [
            50990.9063,
            1,
            0.0
          ],
          [
            51127.27,
            0,
            0.0
          ],
          [
            51263.6367,
            3,
            0.0
          ],
          [
            51400.0,
            2,
            0.0
          ],
          [
            51672.7266,
            0,
            0.0
          ],
          [
            51945.4531,
            2,
            0.0
          ],
          [
            52218.18,
            0,
            0.0
          ],
          [
            52490.9063,
            1,
            0.0
          ]
        ]
      },
      {
        "lengthInSteps": 16,
        "mustHitSection": true,
        "sectionNotes": [
          [
            52763.6328,
            6,
            545.4545
          ],
          [
            53036.3633,
            2,
            0.0
          ],
          [
            53172.7266,
            3,
            0.0
          ],
          [
            53309.09,
            0,
            0.0
          ],
          [
            53445.4531,
            3,
            0.0
          ],
          [
            53581.8164,
            0,
            0.0
          ],
          [
            53718.18,
            2,
            0.0
          ],
          [
            53854.543,
            3,
            0.0
          ],
          [
            54127.27,
            3,
            0.0
          ],
          [
            54400.0,
            1,
            0.0
          ],
          [
            54672.7266,
            0,
            0.0
          ]
        ]
      },
      {
        "lengthInSteps": 16,
        "mustHitSection": true,
        "sectionNotes": [
          [
            55218.18,
            3,
            0.0
          ],
          [
            55354.543,
            1,
            0.0
          ],
          [
            55490.9063,
            0,
            0.0
          ],
          [
            55627.27,
            3,
            0.0
          ],
          [
            55763.6328,
            2,
            0.0
          ],
          [
            56036.3633,
            0,
            0.0
          ],
          [
            56309.09,
            2,
            0.0
          ],
          [
            56581.8164,
            0,
            0.0
          ],
          [
            56854.543,
            1,
            0.0
          ]
        ]
      },
      {
        "lengthInSteps": 16,
        "mustHitSection": false,
        "sectionNotes": [
          [
            57127.27,
            6,
            409.090881
          ],
          [
            57127.27,
            2,
            409.090881
          ],
          [
            57672.7266,
            3,
            0.0
          ],
          [
            57672.7266,
            7,
            0.0
          ],
          [
            57809.09,
            2,
            0.0
          ],
          [
            57809.09,
            6,
            0.0
          ],
          [
            57945.4531,
            3,
            0.0
          ],
          [
            57945.4531,
            7,
            0.0
          ],
          [
            58081.8164,
            2,
            0.0
          ],
          [
            58081.8164,
            6,
            0.0
          ],
          [
            58218.18,
            0,
            0.0
          ],
          [
            58218.18,
            4,
            0.0
          ],
          [
            58354.543,
            1,
            0.0
          ],
          [
            58354.543,
            5,
            0.0
          ],
          [
            58490.9063,
            0,
            0.0
          ],
          [
            58490.9063,
            4,
            0.0
          ],
          [
            58627.27,
            1,
            0.0
          ],
          [
            58627.27,
            5,
            0.0
          ],
          [
            58763.6328,
            0,
            0.0
          ],
          [
            58763.6328,
            4,
            0.0
          ],
          [
            58900.0,
            3,
            0.0
          ],
          [
            58900.0,
            7,
            0.0
          ],
          [
            59036.3633,
            0,
            0.0
          ],
          [
            59036.3633,
            4,
            0.0
          ],
          [
            59172.7266,
            3,
            0.0
          ],
          [
            59172.7266,
            7,
            0.0
          ]
        ]
      },
      {
        "lengthInSteps": 16,
        "mustHitSection": false,
        "sectionNotes": [
          [
            59309.09,
            1,
            409.090881
          ],
          [
            59309.09,
            5,
            409.090881
          ],
          [
            59854.543,
            4,
            0.0
          ],
          [
            59854.543,
            0,
            0.0
          ],
          [
            59990.9063,
            7,
            0.0
          ],
          [
            59990.9063,
            3,
            0.0
          ],
          [
            60127.27,
            4,
            0.0
          ],
          [
            60127.27,
            0,
            0.0
          ],
          [
            60263.6328,
            7,
            0.0
          ],
          [
            60263.6328,
            3,
            0.0
          ],
          [
            60400.0,
            6,
            136.363632
          ],
          [
            60400.0,
            2,
            136.363632
          ],
          [
            60672.7266,
            7,
            0.0
          ],
          [
            60672.7266,
            3,
            0.0
          ],
          [
            60945.4531,
            7,
            0.0
          ],
          [
            60945.4531,
            3,
            0.0
          ],
          [
            61218.18,
            5,
            0.0
          ],
          [
            61218.18,
            1,
            0.0
          ]
        ]
      },
      {
        "lengthInSteps": 16,
        "mustHitSection": true,
        "sectionNotes": [
          [
            61490.9063,
            0,
            409.090881
          ],
          [
            61490.9063,
            7,
            409.090881
          ],
          [
            62036.3633,
            4,
            409.090881
          ],
          [
            62036.3633,
            3,
            409.090881
          ],
          [
            62581.8164,
            2,
            0.0
          ],
          [
            62581.8164,
            6,
            0.0
          ],
          [
            62854.543,
            2,
            0.0
          ],
          [
            62854.543,
            6,
            0.0
          ],
          [
            62990.9063,
            2,
            0.0
          ],
          [
            62990.9063,
            6,
            0.0
          ],
          [
            63127.27,
            3,
            409.090881
          ],
          [
            63127.27,
            4,
            409.090881
          ]
        ]
      },
      {
        "lengthInSteps": 16,
        "mustHitSection": true,
        "sectionNotes": [
          [
            63672.7266,
            5,
            409.090881
          ],
          [
            63672.7266,
            1,
            409.090881
          ],
          [
            64218.18,
            7,
            409.090881
          ],
          [
            64218.18,
            3,
            409.090881
          ],
          [
            64763.6328,
            6,
            409.090881
          ],
          [
            64763.6328,
            2,
            409.090881
          ],
          [
            65309.09,
            4,
            0.0
          ],
          [
            65309.09,
            0,
            0.0
          ],
          [
            65581.81640000001,
            7,
            0.0
          ],
          [
            65581.81640000001,
            3,
            0.0
          ]
        ]
      },
      {
        "lengthInSteps": 16,
        "mustHitSection": false,
        "sectionNotes": [
          [
            65854.543,
            5,
            545.4545
          ],
          [
            65854.543,
            2,
            0.0
          ],
          [
            66127.27,
            2,
            0.0
          ],
          [
            66263.63,
            3,
            0.0
          ],
          [
            66400.0,
            0,
            0.0
          ],
          [
            66672.73,
            1,
            0.0
          ],
          [
            66945.45,
            3,
            0.0
          ],
          [
            67081.81,
            0,
            0.0
          ],
          [
            67218.18,
            3,
            0.0
          ],
          [
            67490.91,
            3,
            0.0
          ],
          [
            67627.27,
            0,
            0.0
          ],
          [
            67763.63,
            1,
            0.0
          ]
        ]
      },
      {
        "lengthInSteps": 16,
        "mustHitSection": false,
        "sectionNotes": [
          [
            68309.0859,
            1,
            0.0
          ],
          [
            68445.45,
            3,
            0.0
          ],
          [
            68581.81,
            0,
            136.363632
          ],
          [
            68854.55,
            1,
            0.0
          ],
          [
            69127.27,
            2,
            0.0
          ],
          [
            69218.18,
            0,
            0.0
          ],
          [
            69309.0859,
            3,
            0.0
          ],
          [
            69400.0,
            0,
            0.0
          ],
          [
            69581.81,
            0,
            0.0
          ],
          [
            69672.73,
            3,
            0.0
          ],
          [
            69763.63,
            0,
            0.0
          ],
          [
            69854.55,
            3,
            0.0
          ],
          [
            69945.45,
            1,
            0.0
          ],
          [
            70127.27,
            0,
            0.0
          ]
        ]
      },
      {
        "lengthInSteps": 16,
        "mustHitSection": true,
        "sectionNotes": [
          [
            70218.18,
            5,
            409.090881
          ],
          [
            70490.91,
            2,
            0.0
          ],
          [
            70627.27,
            3,
            0.0
          ],
          [
            70763.63,
            0,
            0.0
          ],
          [
            70763.63,
            7,
            409.090881
          ],
          [
            71036.36,
            1,
            0.0
          ],
          [
            71309.0859,
            3,
            0.0
          ],
          [
            71309.0859,
            6,
            409.090881
          ],
          [
            71445.45,
            0,
            0.0
          ],
          [
            71581.81,
            3,
            0.0
          ],
          [
            71854.55,
            3,
            0.0
          ],
          [
            71854.55,
            7,
            409.090881
          ],
          [
            71990.91,
            0,
            0.0
          ],
          [
            72127.27,
            1,
            0.0
          ]
        ]
      },
      {
        "lengthInSteps": 16,
        "mustHitSection": true,
        "sectionNotes": [
          [
            72400.0,
            5,
            409.090881
          ],
          [
            72672.73,
            1,
            0.0
          ],
          [
            72809.0859,
            3,
            0.0
          ],
          [
            72945.45,
            0,
            136.363632
          ],
          [
            72945.45,
            7,
            409.090881
          ],
          [
            73218.18,
            1,
            0.0
          ],
          [
            73490.91,
            2,
            0.0
          ],
          [
            73581.81,
            0,
            0.0
          ],
          [
            73672.73,
            3,
            0.0
          ],
          [
            73763.63,
            0,
            0.0
          ],
          [
            73945.45,
            0,
            0.0
          ],
          [
            74036.36,
            3,
            0.0
          ],
          [
            74127.27,
            0,
            0.0
          ],
          [
            74218.18,
            3,
            0.0
          ],
          [
            74309.0859,
            1,
            0.0
          ],
          [
            74490.91,
            0,
            0.0
          ]
        ]
      },
      {
        "lengthInSteps": 16,
        "mustHitSection": false,
        "sectionNotes": [
          [
            74581.81,
            0,
            136.363632
          ],
          [
            74581.81,
            5,
            409.090881
          ],
          [
            74854.55,
            2,
            0.0
          ],
          [
            74990.91,
            3,
            0.0
          ],
          [
            75127.27,
            0,
            0.0
          ],
          [
            75127.27,
            7,
            409.090881
          ],
          [
            75263.63,
            1,
            0.0
          ],
          [
            75400.0,
            3,
            0.0
          ],
          [
            75536.36,
            1,
            0.0
          ],
          [
            75672.73,
            3,
            0.0
          ],
          [
            75672.73,
            6,
            409.090881
          ],
          [
            75809.0859,
            0,
            0.0
          ],
          [
            75945.45,
            3,
            0.0
          ],
          [
            76081.81,
            1,
            0.0
          ],
          [
            76218.18,
            3,
            0.0
          ],
          [
            76218.18,
            7,
            409.090881
          ],
          [
            76354.55,
            0,
            0.0
          ],
          [
            76490.91,
            1,
            0.0
          ]
        ]
      },
      {
        "lengthInSteps": 16,
        "mustHitSection": false,
        "sectionNotes": [
          [
            76763.63,
            0,
            0.0
          ],
          [
            76763.63,
            5,
            409.090881
          ],
          [
            77036.36,
            1,
            0.0
          ],
          [
            77172.73,
            3,
            0.0
          ],
          [
            77309.0859,
            0,
            136.363632
          ],
          [
            77309.0859,
            7,
            409.090881
          ],
          [
            77581.81,
            1,
            0.0
          ],
          [
            77854.55,
            2,
            0.0
          ],
          [
            77854.55,
            6,
            409.090881
          ],
          [
            77990.91,
            3,
            0.0
          ],
          [
            78127.27,
            0,
            0.0
          ],
          [
            78263.63,
            0,
            0.0
          ],
          [
            78400.0,
            3,
            0.0
          ],
          [
            78400.0,
            7,
            0.0
          ],
          [
            78536.36,
            0,
            0.0
          ],
          [
            78536.36,
            4,
            0.0
          ],
          [
            78672.73,
            0,
            0.0
          ],
          [
            78672.73,
            4,
            0.0
          ],
          [
            78809.0859,
            1,
            0.0
          ],
          [
            78809.0859,
            5,
            0.0
          ]
        ]
      },
      {
        "lengthInSteps": 16,
        "mustHitSection": true,
        "sectionNotes": [
          [
            78945.45,
            0,
            136.363632
          ],
          [
            79218.18,
            2,
            0.0
          ],
          [
            79354.55,
            3,
            0.0
          ],
          [
            79490.91,
            0,
            0.0
          ],
          [
            79627.27,
            1,
            0.0
          ],
          [
            79763.63,
            3,
            0.0
          ],
          [
            79900.0,
            1,
            0.0
          ],
          [
            80036.36,
            3,
            0.0
          ],
          [
            80172.73,
            0,
            0.0
          ],
          [
            80309.0859,
            3,
            0.0
          ],
          [
            80445.45,
            1,
            0.0
          ],
          [
            80581.81,
            3,
            0.0
          ],
          [
            80718.18,
            0,
            0.0
          ],
          [
            80854.55,
            1,
            0.0
          ]
        ]
      },
      {
        "lengthInSteps": 16,
        "mustHitSection": true,
        "sectionNotes": [
          [
            81127.27,
            0,
            0.0
          ],
          [
            81400.0,
            1,
            0.0
          ],
          [
            81536.36,
            3,
            0.0
          ],
          [
            81672.73,
            0,
            136.363632
          ],
          [
            81945.45,
            1,
            0.0
          ],
          [
            82218.18,
            2,
            0.0
          ],
          [
            82354.54,
            3,
            0.0
          ],
          [
            82490.91,
            0,
            0.0
          ],
          [
            82627.27,
            0,
            0.0
          ],
          [
            82763.63,
            3,
            0.0
          ],
          [
            82900.0,
            0,
            0.0
          ],
          [
            83036.36,
            0,
            0.0
          ],
          [
            83172.73,
            1,
            0.0
          ]
        ]
      },
      {
        "lengthInSteps": 16,
        "mustHitSection": false,
        "sectionNotes": [
          [
            83309.0859,
            7,
            1090.909
          ],
          [
            83581.81,
            2,
            0.0
          ],
          [
            83854.54,
            3,
            0.0
          ],
          [
            84127.27,
            2,
            0.0
          ],
          [
            84263.63,
            3,
            0.0
          ],
          [
            84536.36,
            0,
            0.0
          ],
          [
            84809.0859,
            2,
            0.0
          ],
          [
            84945.45,
            3,
            0.0
          ],
          [
            85218.18,
            0,
            0.0
          ],
          [
            85354.54,
            3,
            0.0
          ]
        ]
      },
      {
        "lengthInSteps": 16,
        "mustHitSection": true,
        "sectionNotes": [
          [
            85763.63,
            2,
            0.0
          ],
          [
            86036.36,
            3,
            0.0
          ],
          [
            86309.0859,
            2,
            0.0
          ],
          [
            86445.45,
            3,
            0.0
          ],
          [
            86718.18,
            0,
            0.0
          ],
          [
            86990.91,
            2,
            0.0
          ],
          [
            87127.27,
            3,
            0.0
          ],
          [
            87263.63,
            0,
            0.0
          ],
          [
            87400.0,
            1,
            0.0
          ]
        ]
      },
      {
        "lengthInSteps": 16,
        "mustHitSection": true,
        "sectionNotes": [
          [
            87672.73,
            2,
            545.4545
          ]
        ]
      },
      {
        "lengthInSteps": 16,
        "mustHitSection": true,
        "sectionNotes": []
      },
      {
        "lengthInSteps": 16,
        "mustHitSection": true,
        "sectionNotes": []
      },
      {
        "lengthInSteps": 16,
        "mustHitSection": true,
        "sectionNotes": []
      }
    ]
  },
  "generatedBy": "SNIFF ver.6"
}