{
  "song": {
    "player1": "bf-holding-gf",
    "events": [],
    "gfVersion": "pico-speaker",
    "notes": [
      {
        "sectionNotes": [
          [
            1300,
            1,
            0
          ],
          [
            1468.539322,
            2,
            0
          ],
          [
            1637.078644,
            0,
            0
          ],
          [
            1805.6179809999999,
            0,
            0
          ],
          [
            1974.1572999999999,
            2,
            0
          ],
          [
            2142.6966549999997,
            3,
            0
          ],
          [
            2311.23596,
            1,
            0
          ],
          [
            2479.77527,
            3,
            0
          ]
        ],
        "lengthInSteps": 16,
        "mustHitSection": false
      },
      {
        "sectionNotes": [
          [
            2648.31458,
            0,
            0
          ],
          [
            2816.8538799999997,
            3,
            0
          ],
          [
            2985.39331,
            2,
            0
          ],
          [
            3153.93262,
            3,
            0
          ],
          [
            3322.47192,
            1,
            0
          ],
          [
            3491.01123,
            3,
            0
          ],
          [
            3659.55054,
            0,
            0
          ],
          [
            3828.08984,
            3,
            0
          ]
        ],
        "lengthInSteps": 16,
        "mustHitSection": false
      },
      {
        "sectionNotes": [
          [
            3996.62915,
            1,
            0
          ],
          [
            4165.16846,
            2,
            0
          ],
          [
            4333.707759999999,
            0,
            0
          ],
          [
            4502.246999999999,
            0,
            0
          ],
          [
            4670.78662,
            2,
            0
          ],
          [
            4839.326,
            3,
            0
          ],
          [
            5007.865229999999,
            1,
            0
          ],
          [
            5176.4045399999995,
            3,
            0
          ]
        ],
        "lengthInSteps": 16,
        "mustHitSection": false
      },
      {
        "sectionNotes": [
          [
            5344.94385,
            0,
            0
          ],
          [
            5513.483,
            3,
            0
          ],
          [
            5682.02246,
            2,
            0
          ],
          [
            5850.562,
            3,
            0
          ],
          [
            6019.101,
            1,
            0
          ],
          [
            6187.64063,
            3,
            0
          ],
          [
            6356.17969,
            0,
            0
          ],
          [
            6524.719,
            3,
            0
          ]
        ],
        "lengthInSteps": 16,
        "mustHitSection": false
      },
      {
        "sectionNotes": [
          [
            6693.2583,
            1,
            0
          ],
          [
            6861.798,
            2,
            0
          ],
          [
            7030.337,
            0,
            0
          ],
          [
            7198.87646,
            0,
            0
          ],
          [
            7367.41553,
            2,
            0
          ],
          [
            7535.955,
            3,
            0
          ],
          [
            7704.494,
            1,
            0
          ],
          [
            7873.03369,
            3,
            0
          ]
        ],
        "lengthInSteps": 16,
        "mustHitSection": true
      },
      {
        "sectionNotes": [
          [
            8041.573,
            0,
            0
          ],
          [
            8210.1123,
            3,
            0
          ],
          [
            8378.652,
            2,
            0
          ],
          [
            8547.190999999999,
            3,
            0
          ],
          [
            8715.73047,
            1,
            0
          ],
          [
            8884.26953,
            3,
            0
          ],
          [
            9052.809000000001,
            0,
            0
          ],
          [
            9221.348,
            3,
            0
          ]
        ],
        "lengthInSteps": 16,
        "mustHitSection": true
      },
      {
        "sectionNotes": [
          [
            9389.8877,
            1,
            0
          ],
          [
            9558.427,
            2,
            0
          ],
          [
            9726.966,
            0,
            0
          ],
          [
            9895.506,
            0,
            0
          ],
          [
            10064.045,
            2,
            0
          ],
          [
            10232.584,
            3,
            0
          ],
          [
            10401.124,
            1,
            0
          ],
          [
            10569.663,
            3,
            0
          ]
        ],
        "lengthInSteps": 16,
        "mustHitSection": true
      },
      {
        "sectionNotes": [
          [
            10738.202,
            0,
            0
          ],
          [
            10906.741,
            3,
            0
          ],
          [
            11075.281,
            2,
            0
          ],
          [
            11243.82,
            3,
            0
          ],
          [
            11412.3594,
            1,
            0
          ],
          [
            11580.8984,
            3,
            0
          ],
          [
            11749.4385,
            0,
            0
          ],
          [
            11917.9775,
            3,
            0
          ]
        ],
        "lengthInSteps": 16,
        "mustHitSection": true
      },
      {
        "sectionNotes": [
          [
            12423.5957,
            0,
            0
          ],
          [
            12592.1348,
            1,
            0
          ],
          [
            12760.6738,
            3,
            252.80899
          ],
          [
            13097.7529,
            1,
            0
          ]
        ],
        "lengthInSteps": 16,
        "mustHitSection": false
      },
      {
        "sectionNotes": [
          [
            13434.8311,
            0,
            0
          ],
          [
            13771.91,
            0,
            0
          ],
          [
            14108.9883,
            0,
            0
          ],
          [
            14277.5283,
            0,
            0
          ],
          [
            14446.0674,
            2,
            0
          ],
          [
            14530.3369,
            3,
            0
          ],
          [
            14614.6064,
            2,
            0
          ]
        ],
        "lengthInSteps": 16,
        "mustHitSection": false
      },
      {
        "sectionNotes": [
          [
            14783.1465,
            1,
            0
          ],
          [
            14951.6855,
            3,
            0
          ],
          [
            15120.2246,
            2,
            0
          ],
          [
            15288.7637,
            1,
            0
          ],
          [
            15457.3037,
            3,
            0
          ],
          [
            15625.8428,
            2,
            0
          ],
          [
            15794.3818,
            1,
            0
          ],
          [
            15878.6514,
            3,
            0
          ],
          [
            15962.9209,
            2,
            0
          ]
        ],
        "lengthInSteps": 16,
        "mustHitSection": false
      },
      {
        "sectionNotes": [
          [
            16131.4609,
            1,
            252.80899
          ],
          [
            16131.4609,
            4,
            0
          ],
          [
            16300,
            7,
            0
          ],
          [
            16468.5391,
            2,
            252.80899
          ],
          [
            16468.5391,
            6,
            0
          ],
          [
            16637.079100000003,
            7,
            0
          ],
          [
            16805.6182,
            3,
            252.80899
          ],
          [
            16805.6182,
            5,
            0
          ],
          [
            16974.1572,
            7,
            0
          ],
          [
            17142.6963,
            0,
            252.80899
          ],
          [
            17142.6963,
            4,
            0
          ],
          [
            17311.2363,
            7,
            0
          ]
        ],
        "lengthInSteps": 16,
        "mustHitSection": true
      },
      {
        "sectionNotes": [
          [
            17479.7754,
            1,
            252.80899
          ],
          [
            17816.8535,
            0,
            0
          ],
          [
            17985.3926,
            1,
            0
          ],
          [
            18153.9316,
            3,
            252.80899
          ],
          [
            18491.0117,
            1,
            0
          ]
        ],
        "lengthInSteps": 16,
        "mustHitSection": true
      },
      {
        "sectionNotes": [
          [
            18828.09,
            0,
            0
          ],
          [
            19165.168,
            0,
            0
          ],
          [
            19502.248,
            0,
            0
          ],
          [
            19670.7871,
            0,
            0
          ],
          [
            19839.3262,
            2,
            0
          ],
          [
            19923.5957,
            3,
            0
          ],
          [
            20007.8652,
            2,
            0
          ]
        ],
        "lengthInSteps": 16,
        "mustHitSection": true
      },
      {
        "sectionNotes": [
          [
            20176.4043,
            1,
            0
          ],
          [
            20344.9434,
            3,
            0
          ],
          [
            20513.4824,
            2,
            0
          ],
          [
            20682.0215,
            1,
            0
          ],
          [
            20850.5625,
            3,
            0
          ],
          [
            21019.1016,
            2,
            0
          ],
          [
            21187.64,
            1,
            0
          ],
          [
            21271.91,
            3,
            0
          ],
          [
            21356.18,
            2,
            0
          ]
        ],
        "lengthInSteps": 16,
        "mustHitSection": true
      },
      {
        "sectionNotes": [
          [
            21524.7188,
            0,
            0
          ],
          [
            21693.2578,
            3,
            0
          ],
          [
            21861.7969,
            2,
            0
          ],
          [
            22030.3379,
            3,
            0
          ],
          [
            22198.877,
            1,
            0
          ],
          [
            22367.416,
            3,
            0
          ],
          [
            22535.9551,
            0,
            0
          ],
          [
            22704.4941,
            3,
            0
          ]
        ],
        "lengthInSteps": 16,
        "mustHitSection": true
      },
      {
        "sectionNotes": [
          [
            22873.0332,
            5,
            0
          ],
          [
            22873.0332,
            3,
            0
          ],
          [
            23041.5723,
            2,
            0
          ],
          [
            23210.1133,
            0,
            0
          ],
          [
            23210.1133,
            5,
            0
          ],
          [
            23378.6523,
            2,
            0
          ],
          [
            23547.1914,
            5,
            0
          ],
          [
            23547.1914,
            3,
            0
          ],
          [
            23715.73,
            2,
            0
          ],
          [
            23884.27,
            0,
            0
          ],
          [
            23884.27,
            5,
            0
          ],
          [
            24052.8086,
            2,
            0
          ]
        ],
        "lengthInSteps": 16,
        "mustHitSection": false
      },
      {
        "sectionNotes": [
          [
            24221.3477,
            3,
            0
          ],
          [
            24221.3477,
            6,
            0
          ],
          [
            24305.6172,
            2,
            0
          ],
          [
            24389.8867,
            3,
            0
          ],
          [
            24558.4277,
            6,
            0
          ],
          [
            24558.4277,
            3,
            0
          ],
          [
            24726.9668,
            2,
            0
          ],
          [
            24895.5059,
            7,
            252.80899
          ],
          [
            24895.5059,
            3,
            0
          ],
          [
            25064.0449,
            0,
            0
          ],
          [
            25232.584,
            4,
            252.80899
          ],
          [
            25232.584,
            1,
            0
          ],
          [
            25401.123,
            0,
            0
          ]
        ],
        "lengthInSteps": 16,
        "mustHitSection": false
      },
      {
        "sectionNotes": [
          [
            25569.6621,
            3,
            0
          ],
          [
            25569.6621,
            6,
            0
          ],
          [
            25738.2031,
            2,
            0
          ],
          [
            25906.7422,
            0,
            0
          ],
          [
            26075.2813,
            2,
            0
          ],
          [
            26243.82,
            3,
            0
          ],
          [
            26412.36,
            2,
            0
          ],
          [
            26580.8984,
            0,
            0
          ],
          [
            26749.4375,
            2,
            0
          ]
        ],
        "lengthInSteps": 16,
        "mustHitSection": true
      },
      {
        "sectionNotes": [
          [
            26917.9766,
            3,
            0
          ],
          [
            27002.248,
            2,
            0
          ],
          [
            27086.5176,
            3,
            0
          ],
          [
            27255.0566,
            3,
            0
          ],
          [
            27423.5957,
            2,
            0
          ],
          [
            27592.1348,
            3,
            0
          ],
          [
            27760.6738,
            0,
            0
          ],
          [
            27929.2129,
            1,
            0
          ],
          [
            28097.752,
            0,
            0
          ]
        ],
        "lengthInSteps": 16,
        "mustHitSection": true
      },
      {
        "sectionNotes": [
          [
            28266.293,
            6,
            505.617981
          ],
          [
            28266.293,
            3,
            0
          ],
          [
            28434.832,
            2,
            0
          ],
          [
            28603.3711,
            3,
            0
          ],
          [
            28771.91,
            0,
            0
          ],
          [
            28940.45,
            7,
            505.617981
          ],
          [
            28940.45,
            3,
            0
          ],
          [
            29108.9883,
            2,
            0
          ],
          [
            29277.5273,
            3,
            0
          ],
          [
            29446.0684,
            0,
            0
          ]
        ],
        "lengthInSteps": 16,
        "mustHitSection": false
      },
      {
        "sectionNotes": [
          [
            29614.6074,
            1,
            505.617981
          ],
          [
            29614.6074,
            7,
            0
          ],
          [
            29698.877,
            6,
            0
          ],
          [
            29783.1465,
            7,
            0
          ],
          [
            29951.6855,
            4,
            0
          ],
          [
            30120.2246,
            7,
            0
          ],
          [
            30288.7637,
            2,
            505.617981
          ],
          [
            30288.7637,
            6,
            0
          ],
          [
            30457.3027,
            4,
            0
          ],
          [
            30625.8418,
            7,
            0
          ],
          [
            30794.3828,
            5,
            0
          ]
        ],
        "lengthInSteps": 16,
        "mustHitSection": true
      },
      {
        "sectionNotes": [
          [
            30962.9219,
            3,
            0
          ],
          [
            30962.9219,
            4,
            0
          ],
          [
            31131.46,
            2,
            0
          ],
          [
            31300,
            4,
            0
          ],
          [
            31300,
            3,
            0
          ],
          [
            31468.54,
            0,
            0
          ],
          [
            31637.0781,
            4,
            0
          ],
          [
            31637.0781,
            3,
            0
          ],
          [
            31805.6172,
            2,
            0
          ],
          [
            31974.1582,
            4,
            0
          ],
          [
            31974.1582,
            3,
            0
          ],
          [
            32142.6973,
            0,
            0
          ]
        ],
        "lengthInSteps": 16,
        "mustHitSection": true
      },
      {
        "sectionNotes": [
          [
            32311.2363,
            0,
            0
          ],
          [
            32311.2363,
            7,
            0
          ],
          [
            32395.5059,
            6,
            0
          ],
          [
            32479.7754,
            7,
            0
          ],
          [
            32648.3145,
            4,
            0
          ],
          [
            32648.3145,
            0,
            0
          ],
          [
            32816.8535,
            7,
            0
          ],
          [
            32985.3926,
            0,
            0
          ],
          [
            32985.3926,
            6,
            0
          ],
          [
            33153.931599999996,
            0,
            0
          ],
          [
            33153.931599999996,
            4,
            0
          ],
          [
            33322.4727,
            0,
            0
          ],
          [
            33322.4727,
            7,
            0
          ],
          [
            33491.0117,
            0,
            0
          ],
          [
            33491.0117,
            5,
            0
          ]
        ],
        "lengthInSteps": 16,
        "mustHitSection": false
      },
      {
        "sectionNotes": [
          [
            33659.55,
            5,
            674.1573
          ],
          [
            33659.55,
            2,
            0
          ],
          [
            33828.09,
            3,
            0
          ],
          [
            33996.628899999996,
            1,
            0
          ],
          [
            34165.168,
            3,
            0
          ],
          [
            34333.707,
            0,
            0
          ],
          [
            34502.2461,
            3,
            0
          ],
          [
            34670.7852,
            1,
            0
          ],
          [
            34839.3242,
            3,
            0
          ],
          [
            34923.5938,
            3,
            0
          ]
        ],
        "lengthInSteps": 16,
        "mustHitSection": false
      },
      {
        "sectionNotes": [
          [
            35007.8633,
            1,
            0
          ],
          [
            35176.4063,
            3,
            0
          ],
          [
            35344.9453,
            1,
            0
          ],
          [
            35513.4844,
            2,
            0
          ],
          [
            35682.0234,
            0,
            0
          ],
          [
            35850.5625,
            2,
            0
          ],
          [
            36019.1,
            0,
            0
          ],
          [
            36187.64,
            3,
            0
          ],
          [
            36271.91,
            1,
            0
          ]
        ],
        "lengthInSteps": 16,
        "mustHitSection": false
      },
      {
        "sectionNotes": [
          [
            36356.18,
            2,
            0
          ],
          [
            36524.72,
            3,
            0
          ],
          [
            36693.2578,
            2,
            0
          ],
          [
            36861.7969,
            3,
            0
          ],
          [
            37030.3359,
            0,
            0
          ],
          [
            37198.875,
            1,
            0
          ],
          [
            37367.4141,
            0,
            0
          ],
          [
            37451.6836,
            2,
            0
          ],
          [
            37535.9531,
            0,
            0
          ]
        ],
        "lengthInSteps": 16,
        "mustHitSection": false
      },
      {
        "sectionNotes": [
          [
            37704.4961,
            3,
            0
          ],
          [
            37873.0352,
            1,
            0
          ],
          [
            38041.5742,
            0,
            0
          ],
          [
            38210.1133,
            1,
            0
          ],
          [
            38378.6523,
            0,
            0
          ],
          [
            38547.19,
            1,
            0
          ],
          [
            38715.73,
            1,
            0
          ],
          [
            38884.27,
            3,
            0
          ],
          [
            38968.54,
            3,
            0
          ]
        ],
        "lengthInSteps": 16,
        "mustHitSection": false
      },
      {
        "sectionNotes": [
          [
            39052.81,
            2,
            0
          ],
          [
            39221.3477,
            3,
            0
          ],
          [
            39389.8867,
            1,
            0
          ],
          [
            39558.4258,
            3,
            0
          ],
          [
            39726.9648,
            0,
            0
          ],
          [
            39895.5039,
            3,
            0
          ],
          [
            40064.043,
            1,
            0
          ],
          [
            40232.5859,
            3,
            0
          ],
          [
            40316.8555,
            3,
            0
          ]
        ],
        "lengthInSteps": 16,
        "mustHitSection": true
      },
      {
        "sectionNotes": [
          [
            40401.125,
            1,
            0
          ],
          [
            40569.6641,
            3,
            0
          ],
          [
            40738.2031,
            1,
            0
          ],
          [
            40906.7422,
            2,
            0
          ],
          [
            41075.28,
            0,
            0
          ],
          [
            41243.82,
            2,
            0
          ],
          [
            41412.36,
            0,
            0
          ],
          [
            41580.9,
            3,
            0
          ],
          [
            41665.168,
            1,
            0
          ]
        ],
        "lengthInSteps": 16,
        "mustHitSection": true
      },
      {
        "sectionNotes": [
          [
            41749.4375,
            2,
            0
          ],
          [
            41917.9766,
            3,
            0
          ],
          [
            42086.5156,
            2,
            0
          ],
          [
            42255.0547,
            3,
            0
          ],
          [
            42423.5938,
            0,
            0
          ],
          [
            42592.1367,
            1,
            0
          ],
          [
            42760.6758,
            0,
            0
          ],
          [
            42844.9453,
            2,
            0
          ],
          [
            42929.2148,
            0,
            0
          ]
        ],
        "lengthInSteps": 16,
        "mustHitSection": true
      },
      {
        "sectionNotes": [
          [
            43097.7539,
            3,
            0
          ],
          [
            43266.293,
            1,
            0
          ],
          [
            43434.832,
            0,
            0
          ],
          [
            43603.37,
            1,
            0
          ],
          [
            43771.91,
            0,
            0
          ],
          [
            43940.45,
            1,
            0
          ],
          [
            44108.99,
            1,
            0
          ],
          [
            44277.5273,
            3,
            0
          ],
          [
            44361.7969,
            3,
            0
          ]
        ],
        "lengthInSteps": 16,
        "mustHitSection": true
      },
      {
        "sectionNotes": [
          [
            44446.0664,
            3,
            0
          ],
          [
            44530.3359,
            1,
            0
          ],
          [
            44614.6055,
            3,
            0
          ],
          [
            44783.1445,
            0,
            0
          ],
          [
            44951.6836,
            3,
            0
          ],
          [
            45035.9531,
            1,
            0
          ],
          [
            45120.2266,
            2,
            0
          ],
          [
            45288.7656,
            0,
            0
          ],
          [
            45457.3047,
            1,
            0
          ],
          [
            45625.8438,
            3,
            0
          ],
          [
            45710.1133,
            3,
            0
          ]
        ],
        "lengthInSteps": 16,
        "mustHitSection": false
      },
      {
        "sectionNotes": [
          [
            45794.3828,
            2,
            0
          ],
          [
            45962.92,
            3,
            0
          ],
          [
            46047.19,
            0,
            0
          ],
          [
            46131.46,
            1,
            0
          ],
          [
            46300,
            0,
            0
          ],
          [
            46468.54,
            2,
            0
          ],
          [
            46637.08,
            3,
            0
          ],
          [
            46805.6172,
            1,
            0
          ],
          [
            46974.1563,
            3,
            0
          ],
          [
            47058.4258,
            2,
            0
          ]
        ],
        "lengthInSteps": 16,
        "mustHitSection": false
      },
      {
        "sectionNotes": [
          [
            47142.6953,
            0,
            0
          ],
          [
            47311.2344,
            3,
            0
          ],
          [
            47479.7734,
            1,
            0
          ],
          [
            47648.3164,
            3,
            0
          ],
          [
            47816.8555,
            0,
            0
          ],
          [
            47985.3945,
            1,
            0
          ],
          [
            48153.9336,
            3,
            0
          ],
          [
            48238.2031,
            2,
            0
          ],
          [
            48322.4727,
            3,
            0
          ]
        ],
        "lengthInSteps": 16,
        "mustHitSection": false
      },
      {
        "sectionNotes": [
          [
            48491.01,
            1,
            0
          ],
          [
            48659.55,
            3,
            0
          ],
          [
            48828.09,
            0,
            0
          ],
          [
            48996.63,
            3,
            0
          ],
          [
            49165.168,
            1,
            0
          ],
          [
            49333.707,
            3,
            0
          ],
          [
            49502.2461,
            2,
            0
          ],
          [
            49670.7852,
            2,
            0
          ]
        ],
        "lengthInSteps": 16,
        "mustHitSection": false
      },
      {
        "sectionNotes": [
          [
            49839.3242,
            3,
            0
          ],
          [
            49923.5938,
            1,
            0
          ],
          [
            50007.8633,
            3,
            0
          ],
          [
            50176.4063,
            0,
            0
          ],
          [
            50344.9453,
            3,
            0
          ],
          [
            50429.2148,
            1,
            0
          ],
          [
            50513.4844,
            2,
            0
          ],
          [
            50682.0234,
            0,
            0
          ],
          [
            50850.5625,
            1,
            0
          ],
          [
            51019.1,
            3,
            0
          ],
          [
            51103.37,
            3,
            0
          ]
        ],
        "lengthInSteps": 16,
        "mustHitSection": true
      },
      {
        "sectionNotes": [
          [
            51187.64,
            2,
            0
          ],
          [
            51356.18,
            3,
            0
          ],
          [
            51440.45,
            0,
            0
          ],
          [
            51524.72,
            1,
            0
          ],
          [
            51693.2578,
            0,
            0
          ],
          [
            51861.7969,
            2,
            0
          ],
          [
            52030.3359,
            3,
            0
          ],
          [
            52198.875,
            1,
            0
          ],
          [
            52367.4141,
            3,
            0
          ],
          [
            52451.6836,
            2,
            0
          ]
        ],
        "lengthInSteps": 16,
        "mustHitSection": true
      },
      {
        "sectionNotes": [
          [
            52535.9531,
            0,
            0
          ],
          [
            52704.4961,
            3,
            0
          ],
          [
            52873.0352,
            1,
            0
          ],
          [
            53041.5742,
            3,
            0
          ],
          [
            53210.1133,
            0,
            0
          ],
          [
            53378.6523,
            1,
            0
          ],
          [
            53547.19,
            3,
            0
          ],
          [
            53631.46,
            2,
            0
          ],
          [
            53715.73,
            3,
            0
          ]
        ],
        "lengthInSteps": 16,
        "mustHitSection": true
      },
      {
        "sectionNotes": [
          [
            53884.27,
            1,
            0
          ],
          [
            54052.81,
            3,
            0
          ],
          [
            54221.3477,
            0,
            0
          ],
          [
            54389.8867,
            3,
            0
          ],
          [
            54558.4258,
            1,
            0
          ],
          [
            54726.9648,
            3,
            0
          ],
          [
            54895.5039,
            2,
            0
          ],
          [
            55064.043,
            2,
            0
          ]
        ],
        "lengthInSteps": 16,
        "mustHitSection": true
      },
      {
        "sectionNotes": [
          [
            55232.5859,
            1,
            0
          ],
          [
            55232.5859,
            5,
            842.696655
          ],
          [
            55401.125,
            2,
            0
          ],
          [
            55569.6641,
            0,
            0
          ],
          [
            55738.2031,
            0,
            0
          ],
          [
            55906.7422,
            2,
            0
          ],
          [
            56075.28,
            3,
            0
          ],
          [
            56243.82,
            1,
            0
          ],
          [
            56412.36,
            3,
            0
          ]
        ],
        "lengthInSteps": 16,
        "mustHitSection": false
      },
      {
        "sectionNotes": [
          [
            56580.9,
            0,
            0
          ],
          [
            56749.4375,
            1,
            0
          ],
          [
            56917.9766,
            2,
            0
          ],
          [
            57086.5156,
            3,
            0
          ],
          [
            57255.0547,
            1,
            0
          ],
          [
            57255.0547,
            6,
            505.617981
          ],
          [
            57423.5938,
            3,
            0
          ],
          [
            57592.1367,
            0,
            0
          ],
          [
            57760.6758,
            3,
            0
          ]
        ],
        "lengthInSteps": 16,
        "mustHitSection": false
      },
      {
        "sectionNotes": [
          [
            57929.2148,
            1,
            0
          ],
          [
            57929.2148,
            5,
            674.1573
          ],
          [
            58097.7539,
            2,
            0
          ],
          [
            58266.293,
            0,
            0
          ],
          [
            58434.832,
            0,
            0
          ],
          [
            58603.37,
            2,
            0
          ],
          [
            58771.91,
            3,
            0
          ],
          [
            58940.45,
            1,
            0
          ],
          [
            59108.99,
            3,
            0
          ]
        ],
        "lengthInSteps": 16,
        "mustHitSection": false
      },
      {
        "sectionNotes": [
          [
            59277.5273,
            0,
            0
          ],
          [
            59446.0664,
            2,
            0
          ],
          [
            59530.3359,
            3,
            0
          ],
          [
            59614.6055,
            1,
            0
          ],
          [
            59783.1445,
            3,
            0
          ],
          [
            59951.6836,
            1,
            0
          ],
          [
            59951.6836,
            4,
            252.80899
          ],
          [
            60120.2266,
            3,
            0
          ],
          [
            60288.7656,
            6,
            84.26966
          ],
          [
            60288.7656,
            0,
            0
          ],
          [
            60457.3047,
            5,
            0
          ],
          [
            60457.3047,
            3,
            0
          ]
        ],
        "lengthInSteps": 16,
        "mustHitSection": false
      },
      {
        "sectionNotes": [
          [
            60625.8438,
            4,
            168.539322
          ],
          [
            60625.8438,
            1,
            0
          ],
          [
            60794.3828,
            2,
            0
          ],
          [
            60962.92,
            0,
            0
          ],
          [
            61131.46,
            0,
            0
          ],
          [
            61300,
            4,
            168.539322
          ],
          [
            61300,
            2,
            0
          ],
          [
            61468.54,
            3,
            0
          ],
          [
            61637.08,
            1,
            0
          ],
          [
            61805.6172,
            3,
            0
          ]
        ],
        "lengthInSteps": 16,
        "mustHitSection": true
      },
      {
        "sectionNotes": [
          [
            61974.1563,
            4,
            168.539322
          ],
          [
            61974.1563,
            0,
            0
          ],
          [
            62142.6953,
            1,
            0
          ],
          [
            62311.2344,
            2,
            0
          ],
          [
            62479.7734,
            3,
            0
          ],
          [
            62648.3164,
            4,
            168.539322
          ],
          [
            62648.3164,
            1,
            0
          ],
          [
            62816.8555,
            3,
            0
          ],
          [
            62985.3945,
            0,
            0
          ],
          [
            63153.9336,
            3,
            0
          ]
        ],
        "lengthInSteps": 16,
        "mustHitSection": true
      },
      {
        "altAnim": true,
        "sectionNotes": [
          [
            63322.4727,
            1,
            0,
            "No Animation"
          ],
          [
            63322.4727,
            5,
            0
          ],
          [
            63491.01,
            6,
            0
          ],
          [
            63659.55,
            4,
            0
          ],
          [
            63828.09,
            4,
            0
          ],
          [
            63996.63,
            6,
            0
          ],
          [
            64165.168,
            7,
            0
          ],
          [
            64333.707,
            5,
            0
          ],
          [
            64502.2461,
            7,
            0
          ]
        ],
        "lengthInSteps": 16,
        "mustHitSection": false
      },
      {
        "sectionNotes": [
          [
            64670.7852,
            4,
            0
          ],
          [
            64839.3242,
            6,
            0
          ],
          [
            64923.5938,
            7,
            0
          ],
          [
            65007.8633,
            5,
            0
          ],
          [
            65176.4063,
            7,
            0
          ],
          [
            65344.9453,
            5,
            0
          ],
          [
            65513.4844,
            7,
            0
          ],
          [
            65682.0234,
            4,
            0
          ],
          [
            65850.5625,
            7,
            0
          ]
        ],
        "lengthInSteps": 16,
        "mustHitSection": false
      },
      {
        "sectionNotes": [
          [
            66019.1,
            1,
            252.80899
          ],
          [
            66019.1,
            5,
            252.80899
          ],
          [
            66356.18,
            0,
            0
          ],
          [
            66356.18,
            4,
            0
          ],
          [
            66524.72,
            1,
            0
          ],
          [
            66524.72,
            5,
            0
          ],
          [
            66693.25779999999,
            3,
            252.80899
          ],
          [
            66693.25779999999,
            7,
            252.80899
          ],
          [
            67030.3359,
            5,
            168.539322
          ],
          [
            67030.3359,
            1,
            0
          ]
        ],
        "lengthInSteps": 16,
        "mustHitSection": false
      },
      {
        "sectionNotes": [
          [
            67367.4141,
            7,
            421.348328
          ],
          [
            67367.4141,
            0,
            0
          ],
          [
            67704.49,
            0,
            0
          ],
          [
            67873.03,
            4,
            84.26966
          ],
          [
            68041.57,
            0,
            0
          ],
          [
            68041.57,
            5,
            421.348328
          ],
          [
            68210.11,
            0,
            0
          ],
          [
            68378.65,
            2,
            0
          ],
          [
            68462.92,
            3,
            0
          ],
          [
            68547.19,
            2,
            0
          ],
          [
            68547.19,
            4,
            0
          ]
        ],
        "lengthInSteps": 16,
        "mustHitSection": false
      },
      {
        "sectionNotes": [
          [
            68715.73,
            5,
            0
          ],
          [
            68715.73,
            2,
            589.887634
          ],
          [
            68884.27,
            7,
            0
          ],
          [
            69052.81,
            6,
            0
          ],
          [
            69221.35,
            5,
            0
          ],
          [
            69389.89,
            7,
            0
          ],
          [
            69389.89,
            1,
            252.80899
          ],
          [
            69558.43,
            6,
            0
          ],
          [
            69726.97,
            5,
            0
          ],
          [
            69726.97,
            2,
            252.80899
          ],
          [
            69811.2344,
            7,
            0
          ],
          [
            69895.51,
            6,
            0
          ]
        ],
        "lengthInSteps": 16,
        "mustHitSection": true
      },
      {
        "sectionNotes": [
          [
            70064.05,
            4,
            0
          ],
          [
            70064.05,
            3,
            589.887634
          ],
          [
            70232.5859,
            7,
            0
          ],
          [
            70401.125,
            6,
            0
          ],
          [
            70569.6641,
            7,
            0
          ],
          [
            70738.2,
            5,
            0
          ],
          [
            70738.2,
            0,
            589.887634
          ],
          [
            70906.74,
            7,
            0
          ],
          [
            71075.28,
            4,
            0
          ],
          [
            71243.82,
            7,
            0
          ]
        ],
        "lengthInSteps": 16,
        "mustHitSection": true
      },
      {
        "sectionNotes": [
          [
            71412.36,
            1,
            252.80899
          ],
          [
            71749.44,
            0,
            0
          ],
          [
            71917.98,
            1,
            0
          ],
          [
            72086.5156,
            3,
            252.80899
          ],
          [
            72423.59,
            1,
            0
          ]
        ],
        "lengthInSteps": 16,
        "mustHitSection": true
      },
      {
        "sectionNotes": [
          [
            72760.67,
            0,
            0
          ],
          [
            73097.75,
            0,
            0
          ],
          [
            73434.83,
            0,
            0
          ],
          [
            73603.37,
            0,
            0
          ],
          [
            73771.91,
            2,
            0
          ],
          [
            73856.18,
            3,
            0
          ],
          [
            73940.45,
            2,
            0
          ]
        ],
        "lengthInSteps": 16,
        "mustHitSection": true
      },
      {
        "sectionNotes": [
          [
            74108.99,
            1,
            0
          ],
          [
            74277.53,
            3,
            0
          ],
          [
            74446.07,
            2,
            0
          ],
          [
            74614.61,
            1,
            0
          ],
          [
            74783.15,
            3,
            0
          ],
          [
            74951.69,
            2,
            0
          ],
          [
            75120.23,
            1,
            0
          ],
          [
            75204.49,
            3,
            0
          ],
          [
            75288.7656,
            2,
            0
          ]
        ],
        "lengthInSteps": 16,
        "mustHitSection": true
      },
      {
        "sectionNotes": [
          [
            75457.3047,
            0,
            0
          ],
          [
            75625.84,
            3,
            0
          ],
          [
            75794.38,
            2,
            0
          ],
          [
            75962.92,
            3,
            0
          ],
          [
            76131.46,
            1,
            0
          ],
          [
            76300,
            3,
            0
          ],
          [
            76468.54,
            0,
            0
          ],
          [
            76637.08,
            3,
            0
          ]
        ],
        "lengthInSteps": 16,
        "mustHitSection": true
      },
      {
        "sectionNotes": [
          [
            76805.62,
            5,
            1264.04492
          ],
          [
            76805.62,
            0,
            0
          ],
          [
            76974.16,
            0,
            0
          ],
          [
            77142.6953,
            1,
            0
          ],
          [
            77311.2344,
            0,
            0
          ],
          [
            77395.51,
            2,
            0
          ],
          [
            77479.77,
            0,
            0
          ],
          [
            77648.31,
            1,
            0
          ],
          [
            77816.85,
            3,
            0
          ],
          [
            77985.39,
            0,
            0
          ]
        ],
        "lengthInSteps": 16,
        "mustHitSection": false
      },
      {
        "sectionNotes": [
          [
            78153.93,
            4,
            1264.04492
          ],
          [
            78153.93,
            1,
            0
          ],
          [
            78238.2,
            3,
            0
          ],
          [
            78322.47,
            1,
            0
          ],
          [
            78491.01,
            0,
            0
          ],
          [
            78659.55,
            1,
            0
          ],
          [
            78828.0859,
            2,
            252.80899
          ],
          [
            79165.17,
            0,
            0
          ],
          [
            79333.71,
            0,
            0
          ]
        ],
        "lengthInSteps": 16,
        "mustHitSection": false
      },
      {
        "sectionNotes": [
          [
            79502.25,
            7,
            1264.04492
          ],
          [
            79502.25,
            1,
            0
          ],
          [
            79670.79,
            0,
            0
          ],
          [
            79755.0547,
            3,
            0
          ],
          [
            79839.33,
            3,
            0
          ],
          [
            80007.87,
            3,
            0
          ],
          [
            80092.13,
            0,
            0
          ],
          [
            80176.41,
            1,
            0
          ],
          [
            80344.9453,
            1,
            0
          ],
          [
            80429.21,
            3,
            0
          ],
          [
            80513.4844,
            2,
            0
          ],
          [
            80682.02,
            0,
            0
          ],
          [
            80766.29,
            1,
            0
          ]
        ],
        "lengthInSteps": 16,
        "mustHitSection": false
      },
      {
        "sectionNotes": [
          [
            80850.56,
            2,
            0
          ],
          [
            80850.56,
            4,
            1264.04492
          ],
          [
            80934.83,
            3,
            0
          ],
          [
            81019.1,
            2,
            0
          ],
          [
            81103.37,
            0,
            84.26966
          ],
          [
            81271.91,
            3,
            0
          ],
          [
            81356.18,
            2,
            0
          ],
          [
            81524.72,
            0,
            0
          ],
          [
            81693.26,
            3,
            0
          ],
          [
            81861.8,
            0,
            0
          ],
          [
            82030.3359,
            2,
            0
          ]
        ],
        "lengthInSteps": 16,
        "mustHitSection": false
      },
      {
        "sectionNotes": [
          [
            82198.875,
            0,
            0
          ],
          [
            82367.4141,
            0,
            0
          ],
          [
            82535.95,
            1,
            0
          ],
          [
            82704.49,
            0,
            0
          ],
          [
            82788.7656,
            2,
            0
          ],
          [
            82873.03,
            0,
            0
          ],
          [
            83041.57,
            1,
            0
          ],
          [
            83210.11,
            3,
            0
          ],
          [
            83378.65,
            0,
            0
          ]
        ],
        "lengthInSteps": 16,
        "mustHitSection": true
      },
      {
        "sectionNotes": [
          [
            83547.19,
            1,
            0
          ],
          [
            83631.46,
            3,
            0
          ],
          [
            83715.73,
            1,
            0
          ],
          [
            83884.27,
            0,
            0
          ],
          [
            84052.81,
            1,
            0
          ],
          [
            84221.35,
            2,
            252.80899
          ],
          [
            84558.43,
            0,
            0
          ],
          [
            84726.97,
            0,
            0
          ]
        ],
        "lengthInSteps": 16,
        "mustHitSection": true
      },
      {
        "sectionNotes": [
          [
            84895.51,
            1,
            0
          ],
          [
            85064.05,
            0,
            0
          ],
          [
            85148.31,
            3,
            0
          ],
          [
            85232.5859,
            3,
            0
          ],
          [
            85401.125,
            3,
            0
          ],
          [
            85485.39,
            0,
            0
          ],
          [
            85569.6641,
            1,
            0
          ],
          [
            85738.2,
            1,
            0
          ],
          [
            85822.47,
            3,
            0
          ],
          [
            85906.74,
            2,
            0
          ],
          [
            86075.28,
            0,
            0
          ],
          [
            86159.55,
            1,
            0
          ]
        ],
        "lengthInSteps": 16,
        "mustHitSection": true
      },
      {
        "sectionNotes": [
          [
            86243.82,
            2,
            0
          ],
          [
            86328.0859,
            3,
            0
          ],
          [
            86412.36,
            2,
            0
          ],
          [
            86496.63,
            0,
            84.26966
          ],
          [
            86665.17,
            3,
            0
          ],
          [
            86749.44,
            2,
            0
          ],
          [
            86917.98,
            0,
            0
          ],
          [
            87086.5156,
            3,
            0
          ],
          [
            87255.0547,
            0,
            0
          ],
          [
            87423.59,
            2,
            0
          ]
        ],
        "lengthInSteps": 16,
        "mustHitSection": true
      },
      {
        "sectionNotes": [
          [
            87592.13,
            1,
            0
          ],
          [
            87676.41,
            0,
            0
          ],
          [
            87760.67,
            3,
            0
          ],
          [
            87929.21,
            2,
            0
          ],
          [
            88013.4844,
            1,
            0
          ],
          [
            88097.75,
            3,
            0
          ],
          [
            88266.29,
            2,
            0
          ],
          [
            88434.83,
            3,
            0
          ],
          [
            88603.37,
            2,
            0
          ],
          [
            88771.91,
            0,
            0
          ]
        ],
        "lengthInSteps": 16,
        "mustHitSection": false
      },
      {
        "sectionNotes": [
          [
            88940.45,
            1,
            0
          ],
          [
            89024.72,
            0,
            0
          ],
          [
            89108.99,
            3,
            0
          ],
          [
            89277.53,
            2,
            0
          ],
          [
            89361.8,
            1,
            0
          ],
          [
            89446.07,
            3,
            0
          ],
          [
            89614.61,
            2,
            0
          ],
          [
            89783.15,
            3,
            0
          ],
          [
            89951.69,
            1,
            0
          ],
          [
            90120.23,
            3,
            0
          ]
        ],
        "lengthInSteps": 16,
        "mustHitSection": false
      },
      {
        "sectionNotes": [
          [
            90288.7656,
            2,
            0
          ],
          [
            90373.03,
            3,
            0
          ],
          [
            90457.3047,
            2,
            0
          ],
          [
            90625.84,
            1,
            0
          ],
          [
            90710.11,
            0,
            0
          ],
          [
            90794.38,
            1,
            0
          ],
          [
            90962.92,
            3,
            0
          ],
          [
            91131.46,
            3,
            0
          ],
          [
            91215.73,
            1,
            0
          ],
          [
            91300,
            3,
            0
          ],
          [
            91468.54,
            1,
            0
          ]
        ],
        "lengthInSteps": 16,
        "mustHitSection": false
      },
      {
        "sectionNotes": [
          [
            91637.08,
            0,
            0
          ],
          [
            91721.35,
            3,
            0
          ],
          [
            91805.62,
            1,
            0
          ],
          [
            91889.89,
            0,
            0
          ],
          [
            91974.16,
            1,
            0
          ],
          [
            92142.6953,
            3,
            0
          ],
          [
            92311.2344,
            0,
            0
          ],
          [
            92395.51,
            3,
            0
          ],
          [
            92479.77,
            1,
            0
          ],
          [
            92564.05,
            0,
            0
          ],
          [
            92648.31,
            1,
            168.539322
          ]
        ],
        "lengthInSteps": 16,
        "mustHitSection": false
      },
      {
        "sectionNotes": [
          [
            92985.39,
            1,
            0
          ],
          [
            93069.6641,
            0,
            0
          ],
          [
            93153.93,
            3,
            0
          ],
          [
            93322.47,
            2,
            0
          ],
          [
            93406.74,
            1,
            0
          ],
          [
            93491.01,
            3,
            0
          ],
          [
            93659.55,
            2,
            0
          ],
          [
            93828.0859,
            3,
            0
          ],
          [
            93996.63,
            2,
            0
          ],
          [
            94165.17,
            0,
            0
          ]
        ],
        "lengthInSteps": 16,
        "mustHitSection": true
      },
      {
        "sectionNotes": [
          [
            94333.71,
            1,
            0
          ],
          [
            94417.98,
            0,
            0
          ],
          [
            94502.25,
            3,
            0
          ],
          [
            94670.79,
            2,
            0
          ],
          [
            94755.0547,
            1,
            0
          ],
          [
            94839.33,
            3,
            0
          ],
          [
            95007.87,
            2,
            0
          ],
          [
            95176.41,
            3,
            0
          ],
          [
            95344.9453,
            1,
            0
          ],
          [
            95513.4844,
            3,
            0
          ]
        ],
        "lengthInSteps": 16,
        "mustHitSection": true
      },
      {
        "sectionNotes": [
          [
            95682.02,
            2,
            0
          ],
          [
            95766.29,
            3,
            0
          ],
          [
            95850.56,
            2,
            0
          ],
          [
            96019.1,
            1,
            0
          ],
          [
            96103.37,
            0,
            0
          ],
          [
            96187.64,
            1,
            0
          ],
          [
            96356.18,
            3,
            0
          ],
          [
            96524.72,
            3,
            0
          ],
          [
            96608.99,
            1,
            0
          ],
          [
            96693.26,
            3,
            0
          ],
          [
            96861.8,
            1,
            0
          ]
        ],
        "lengthInSteps": 16,
        "mustHitSection": true
      },
      {
        "sectionNotes": [
          [
            97030.3359,
            0,
            0
          ],
          [
            97114.61,
            3,
            0
          ],
          [
            97198.875,
            1,
            0
          ],
          [
            97283.15,
            0,
            0
          ],
          [
            97367.4141,
            1,
            0
          ],
          [
            97535.95,
            3,
            0
          ],
          [
            97704.49,
            0,
            0
          ],
          [
            97788.7656,
            3,
            0
          ],
          [
            97873.03,
            1,
            0
          ],
          [
            97957.3047,
            0,
            0
          ],
          [
            98041.57,
            1,
            337.078644
          ]
        ],
        "lengthInSteps": 16,
        "mustHitSection": true
      },
      {
        "sectionNotes": [
          [
            98378.65,
            0,
            0
          ],
          [
            98462.92,
            3,
            0
          ],
          [
            98547.19,
            2,
            0
          ],
          [
            98715.73,
            3,
            0
          ],
          [
            98884.27,
            0,
            0
          ],
          [
            98968.54,
            3,
            0
          ],
          [
            99052.81,
            2,
            0
          ],
          [
            99221.35,
            3,
            0
          ],
          [
            99389.89,
            0,
            0
          ],
          [
            99474.16,
            3,
            0
          ],
          [
            99558.43,
            2,
            0
          ]
        ],
        "lengthInSteps": 16,
        "mustHitSection": false
      },
      {
        "sectionNotes": [
          [
            99726.97,
            4,
            589.887634
          ],
          [
            99726.97,
            3,
            0
          ],
          [
            99895.51,
            0,
            0
          ],
          [
            99979.77,
            3,
            0
          ],
          [
            100064.05,
            2,
            0
          ],
          [
            100232.5859,
            3,
            0
          ],
          [
            100401.125,
            6,
            589.887634
          ],
          [
            100401.125,
            2,
            0
          ],
          [
            100569.6641,
            1,
            0
          ],
          [
            100738.2,
            0,
            0
          ],
          [
            100906.74,
            3,
            0
          ]
        ],
        "lengthInSteps": 16,
        "mustHitSection": false
      },
      {
        "sectionNotes": [
          [
            101075.28,
            0,
            0
          ],
          [
            101159.55,
            3,
            0
          ],
          [
            101243.82,
            2,
            0
          ],
          [
            101412.359,
            3,
            0
          ],
          [
            101580.9,
            0,
            0
          ],
          [
            101665.172,
            3,
            0
          ],
          [
            101749.438,
            2,
            0
          ],
          [
            101917.977,
            3,
            0
          ],
          [
            102086.516,
            0,
            0
          ],
          [
            102170.789,
            3,
            0
          ],
          [
            102255.055,
            2,
            0
          ]
        ],
        "lengthInSteps": 16,
        "mustHitSection": false
      },
      {
        "sectionNotes": [
          [
            102423.594,
            4,
            589.887634
          ],
          [
            102423.594,
            3,
            0
          ],
          [
            102592.133,
            0,
            0
          ],
          [
            102676.406,
            3,
            0
          ],
          [
            102760.672,
            2,
            0
          ],
          [
            102929.211,
            3,
            0
          ],
          [
            103097.75,
            6,
            589.887634
          ],
          [
            103097.75,
            2,
            0
          ],
          [
            103266.289,
            1,
            0
          ],
          [
            103434.828,
            0,
            0
          ],
          [
            103603.367,
            3,
            0
          ]
        ],
        "lengthInSteps": 16,
        "mustHitSection": false
      },
      {
        "sectionNotes": [
          [
            103771.906,
            4,
            0
          ],
          [
            103771.906,
            3,
            0
          ],
          [
            103856.18,
            7,
            0
          ],
          [
            103856.18,
            0,
            0
          ],
          [
            103940.453,
            2,
            0
          ],
          [
            103940.453,
            6,
            0
          ],
          [
            104108.992,
            0,
            0
          ],
          [
            104108.992,
            7,
            0
          ],
          [
            104277.531,
            4,
            0
          ],
          [
            104277.531,
            3,
            0
          ],
          [
            104361.8,
            7,
            0
          ],
          [
            104361.8,
            0,
            0
          ],
          [
            104446.07,
            2,
            0
          ],
          [
            104446.07,
            6,
            0
          ],
          [
            104614.609,
            0,
            0
          ],
          [
            104614.609,
            7,
            0
          ],
          [
            104783.148,
            4,
            0
          ],
          [
            104783.148,
            3,
            0
          ],
          [
            104867.414,
            7,
            0
          ],
          [
            104867.414,
            0,
            0
          ],
          [
            104951.688,
            2,
            0
          ],
          [
            104951.688,
            6,
            0
          ]
        ],
        "lengthInSteps": 16,
        "mustHitSection": true
      },
      {
        "sectionNotes": [
          [
            105120.227,
            0,
            0
          ],
          [
            105120.227,
            7,
            0
          ],
          [
            105288.766,
            4,
            0
          ],
          [
            105288.766,
            3,
            0
          ],
          [
            105373.031,
            7,
            0
          ],
          [
            105373.031,
            0,
            0
          ],
          [
            105457.305,
            2,
            0
          ],
          [
            105457.305,
            6,
            0
          ],
          [
            105625.844,
            0,
            0
          ],
          [
            105625.844,
            7,
            0
          ],
          [
            105794.383,
            2,
            0
          ],
          [
            105794.383,
            6,
            0
          ],
          [
            105962.922,
            1,
            0
          ],
          [
            105962.922,
            5,
            0
          ],
          [
            106131.461,
            3,
            0
          ],
          [
            106131.461,
            4,
            0
          ],
          [
            106300,
            0,
            0
          ],
          [
            106300,
            7,
            0
          ]
        ],
        "lengthInSteps": 16,
        "mustHitSection": true
      },
      {
        "sectionNotes": [
          [
            106468.539,
            4,
            0
          ],
          [
            106468.539,
            3,
            0
          ],
          [
            106552.813,
            7,
            0
          ],
          [
            106552.813,
            0,
            0
          ],
          [
            106637.078,
            2,
            0
          ],
          [
            106637.078,
            6,
            0
          ],
          [
            106805.617,
            0,
            0
          ],
          [
            106805.617,
            7,
            0
          ],
          [
            106974.156,
            4,
            0
          ],
          [
            106974.156,
            3,
            0
          ],
          [
            107058.43,
            7,
            0
          ],
          [
            107058.43,
            0,
            0
          ],
          [
            107142.695,
            2,
            0
          ],
          [
            107142.695,
            6,
            0
          ],
          [
            107311.234,
            0,
            0
          ],
          [
            107311.234,
            7,
            0
          ],
          [
            107479.773,
            4,
            0
          ],
          [
            107479.773,
            3,
            0
          ],
          [
            107564.047,
            7,
            0
          ],
          [
            107564.047,
            0,
            0
          ],
          [
            107648.313,
            2,
            0
          ],
          [
            107648.313,
            6,
            0
          ]
        ],
        "lengthInSteps": 16,
        "mustHitSection": true
      },
      {
        "sectionNotes": [
          [
            107816.852,
            0,
            0
          ],
          [
            107816.852,
            7,
            0
          ],
          [
            107985.391,
            4,
            0
          ],
          [
            107985.391,
            3,
            0
          ],
          [
            108069.664,
            7,
            0
          ],
          [
            108069.664,
            0,
            0
          ],
          [
            108153.93,
            2,
            0
          ],
          [
            108153.93,
            6,
            0
          ],
          [
            108322.469,
            0,
            0
          ],
          [
            108322.469,
            7,
            0
          ],
          [
            108491.008,
            2,
            0
          ],
          [
            108491.008,
            6,
            0
          ],
          [
            108659.547,
            1,
            0
          ],
          [
            108659.547,
            5,
            0
          ],
          [
            108828.086,
            3,
            0
          ],
          [
            108828.086,
            4,
            0
          ],
          [
            108996.633,
            0,
            0
          ],
          [
            108996.633,
            7,
            0
          ]
        ],
        "lengthInSteps": 16,
        "mustHitSection": true
      },
      {
        "sectionNotes": [
          [
            109165.172,
            7,
            589.887634
          ],
          [
            109165.172,
            3,
            0
          ],
          [
            109249.438,
            2,
            0
          ],
          [
            109333.711,
            3,
            0
          ],
          [
            109417.977,
            2,
            0
          ],
          [
            109502.25,
            0,
            0
          ],
          [
            109670.789,
            1,
            0
          ],
          [
            109839.328,
            5,
            589.887634
          ],
          [
            109839.328,
            3,
            0
          ],
          [
            109923.594,
            2,
            0
          ],
          [
            110007.867,
            3,
            0
          ],
          [
            110092.133,
            2,
            0
          ],
          [
            110176.406,
            0,
            0
          ],
          [
            110344.945,
            1,
            0
          ]
        ],
        "lengthInSteps": 16,
        "mustHitSection": false
      },
      {
        "sectionNotes": [
          [
            110513.484,
            6,
            589.887634
          ],
          [
            110513.484,
            3,
            0
          ],
          [
            110597.75,
            0,
            0
          ],
          [
            110682.023,
            2,
            0
          ],
          [
            110766.289,
            3,
            0
          ],
          [
            110850.563,
            0,
            0
          ],
          [
            111019.1,
            1,
            0
          ],
          [
            111187.641,
            5,
            589.887634
          ],
          [
            111187.641,
            3,
            0
          ],
          [
            111271.906,
            2,
            0
          ],
          [
            111356.18,
            3,
            0
          ],
          [
            111440.453,
            2,
            0
          ],
          [
            111524.719,
            0,
            0
          ],
          [
            111693.258,
            1,
            0
          ]
        ],
        "lengthInSteps": 16,
        "mustHitSection": false
      },
      {
        "sectionNotes": [
          [
            111861.8,
            7,
            0
          ],
          [
            111946.07,
            6,
            0
          ],
          [
            112030.336,
            7,
            0
          ],
          [
            112114.609,
            6,
            0
          ],
          [
            112198.875,
            4,
            0
          ],
          [
            112367.414,
            5,
            0
          ],
          [
            112535.953,
            7,
            0
          ],
          [
            112620.227,
            6,
            0
          ],
          [
            112704.492,
            7,
            0
          ],
          [
            112788.766,
            6,
            0
          ],
          [
            112873.031,
            4,
            0
          ],
          [
            113041.57,
            5,
            0
          ]
        ],
        "lengthInSteps": 16,
        "mustHitSection": false
      },
      {
        "sectionNotes": [
          [
            113210.109,
            7,
            0
          ],
          [
            113294.383,
            4,
            0
          ],
          [
            113378.648,
            6,
            0
          ],
          [
            113462.922,
            7,
            0
          ],
          [
            113547.188,
            4,
            0
          ],
          [
            113715.727,
            5,
            0
          ],
          [
            113884.273,
            7,
            0
          ],
          [
            113968.539,
            6,
            0
          ],
          [
            114052.813,
            7,
            0
          ],
          [
            114137.078,
            6,
            0
          ],
          [
            114221.352,
            4,
            0
          ],
          [
            114389.891,
            5,
            0
          ]
        ],
        "lengthInSteps": 16,
        "mustHitSection": false
      },
      {
        "sectionNotes": [
          [
            114558.43,
            3,
            589.887634
          ],
          [
            114558.43,
            6,
            0
          ],
          [
            114726.969,
            7,
            0
          ],
          [
            114895.508,
            5,
            0
          ],
          [
            115064.047,
            7,
            0
          ],
          [
            115232.586,
            1,
            589.887634
          ],
          [
            115232.586,
            4,
            0
          ],
          [
            115401.125,
            5,
            0
          ],
          [
            115569.664,
            4,
            0
          ],
          [
            115653.93,
            7,
            0
          ],
          [
            115738.2,
            5,
            0
          ],
          [
            115822.469,
            4,
            0
          ]
        ],
        "lengthInSteps": 16,
        "mustHitSection": true
      },
      {
        "sectionNotes": [
          [
            115906.742,
            6,
            0
          ],
          [
            115906.742,
            0,
            589.887634
          ],
          [
            116075.281,
            7,
            0
          ],
          [
            116243.82,
            5,
            0
          ],
          [
            116412.359,
            7,
            0
          ],
          [
            116580.9,
            1,
            589.887634
          ],
          [
            116580.9,
            4,
            0
          ],
          [
            116665.172,
            7,
            0
          ],
          [
            116749.438,
            5,
            0
          ],
          [
            116833.711,
            4,
            0
          ],
          [
            116917.977,
            7,
            0
          ],
          [
            117086.516,
            5,
            0
          ]
        ],
        "lengthInSteps": 16,
        "mustHitSection": true
      },
      {
        "sectionNotes": [
          [
            117255.055,
            2,
            0
          ],
          [
            117255.055,
            6,
            589.887634
          ],
          [
            117423.594,
            3,
            0
          ],
          [
            117592.133,
            1,
            0
          ],
          [
            117760.672,
            3,
            0
          ],
          [
            117929.211,
            0,
            0
          ],
          [
            118097.75,
            1,
            0
          ],
          [
            118266.289,
            0,
            0
          ],
          [
            118350.563,
            3,
            0
          ],
          [
            118434.828,
            1,
            0
          ],
          [
            118519.1,
            0,
            0
          ]
        ],
        "lengthInSteps": 16,
        "mustHitSection": true
      },
      {
        "sectionNotes": [
          [
            118603.367,
            2,
            0
          ],
          [
            118771.906,
            3,
            0
          ],
          [
            118940.453,
            1,
            0
          ],
          [
            119108.992,
            3,
            0
          ],
          [
            119277.531,
            0,
            0
          ],
          [
            119361.8,
            3,
            0
          ],
          [
            119446.07,
            1,
            0
          ],
          [
            119530.336,
            0,
            0
          ],
          [
            119614.609,
            3,
            0
          ],
          [
            119783.148,
            1,
            0
          ]
        ],
        "lengthInSteps": 16,
        "mustHitSection": true
      },
      {
        "sectionNotes": [],
        "lengthInSteps": 16,
        "mustHitSection": true
      },
      {
        "sectionNotes": [],
        "lengthInSteps": 16,
        "mustHitSection": true
      },
      {
        "sectionNotes": [],
        "lengthInSteps": 16,
        "mustHitSection": true
      },
      {
        "sectionNotes": [],
        "lengthInSteps": 16,
        "mustHitSection": true
      },
      {
        "gfSection": false,
        "lengthInSteps": 16,
        "altAnim": false,
        "typeOfSection": 0,
        "sectionNotes": [],
        "bpm": 178,
        "changeBPM": false,
        "mustHitSection": true
      }
    ],
    "player2": "tankman",
    "player3": null,
    "song": "Stress",
    "stage": "tank",
    "needsVoices": true,
    "validScore": true,
    "bpm": 178,
    "speed": 2.6
  }
}