{
    "stage": "tankman-stage",
    "envType": "preset",
    "character1":{
        "Name": "tankman",
        "pos": [
            500,
            95
        ],
        "size": [
            [
                0.75,
                0.75
            ],
            [
                0.75,
                0.75
            ],
            [
                0.75,
                0.75
            ],
            [
                0.75,
                0.75
            ],
            [
                0.75,
                0.75
            ]
        ]
    },
    "character2": {
        "Name": "bfandgf",
        "pos": [
                500,
                95
        ],
        "size": [
            [
                0.85,
                0.85
            ],
            [
                0.85,
                0.85
            ],
            [
                0.85,
                0.85
            ],
            [
                0.85,
                0.85
            ],
            [
                0.85,
                0.85
            ]
        ]
    },
	"gf":{
		"Enabled": true,
        "style": "pico-speaker",
        "anim": "Pico shoot 2",
		"OnCenter": false,
        "scale": 0.85,
        "flipped": false,
		"pos": [
			1020,
			680
		]
	},
    "customNote": "None",
    "boppingSpeed": 30
}