{
    "modchart":[
        {"type": "characterLoading", "name": "tankman-ugh", "player": 1},
        {"type": "characterLoading", "name": "tankman", "player": 1},

        {"type": "changeCharacter", "name": "tankman-ugh", "player": 1, "pos": 6282},
        {"type": "changeCharacter", "name": "tankman", "player": 1, "pos": 7182},

        {"type": "changeCharacter", "name": "tankman-ugh", "player": 1, "pos": 42264},
        {"type": "changeCharacter", "name": "tankman", "player": 1, "pos": 43200},

        {"type": "changeCharacter", "name": "tankman-ugh", "player": 1, "pos": 49838},
        {"type": "changeCharacter", "name": "tankman", "player": 1, "pos": 50200},

        {"type": "changeCharacter", "name": "tankman-ugh", "player": 1, "pos": 51275},
        {"type": "changeCharacter", "name": "tankman", "player": 1, "pos": 51400},

        {"type": "changeCharacter", "name": "tankman-ugh", "player": 1, "pos": 78300},
        {"type": "changeCharacter", "name": "tankman", "player": 1, "pos": 79200}
    ]
}