{
  "song": {
    "song": "Pico",
    "bpm": 150.0,
    "needsVoices": true,
    "player1": "bf",
    "player2": "pico",
    "speed": 1.6,
    "notes": [
      {
        "lengthInSteps": 16,
        "mustHitSection": true,
        "sectionNotes": []
      },
      {
        "lengthInSteps": 16,
        "mustHitSection": true,
        "sectionNotes": []
      },
      {
        "lengthInSteps": 16,
        "mustHitSection": false,
        "sectionNotes": [
          [
            3809.99976,
            2,
            0.0
          ],
          [
            4009.99976,
            3,
            0.0
          ],
          [
            4210.0,
            2,
            0.0
          ],
          [
            4610.0,
            0,
            0.0
          ]
        ]
      },
      {
        "lengthInSteps": 16,
        "mustHitSection": false,
        "sectionNotes": [
          [
            5010.0,
            0,
            0.0
          ],
          [
            5410.0,
            2,
            0.0
          ],
          [
            5610.0,
            3,
            0.0
          ],
          [
            5810.0,
            2,
            0.0
          ],
          [
            6210.0,
            0,
            0.0
          ]
        ]
      },
      {
        "lengthInSteps": 16,
        "mustHitSection": false,
        "sectionNotes": [
          [
            7009.99951,
            2,
            0.0
          ],
          [
            7209.99951,
            3,
            0.0
          ],
          [
            7409.99951,
            2,
            0.0
          ],
          [
            7809.99951,
            0,
            0.0
          ]
        ]
      },
      {
        "lengthInSteps": 16,
        "mustHitSection": false,
        "sectionNotes": [
          [
            8210.0,
            0,
            0.0
          ],
          [
            8610.0,
            2,
            0.0
          ],
          [
            8810.0,
            3,
            0.0
          ],
          [
            9010.0,
            2,
            0.0
          ],
          [
            9410.0,
            0,
            0.0
          ]
        ]
      },
      {
        "lengthInSteps": 16,
        "mustHitSection": true,
        "sectionNotes": [
          [
            10210.0,
            2,
            0.0
          ],
          [
            10410.0,
            3,
            0.0
          ],
          [
            10610.0,
            2,
            0.0
          ],
          [
            11010.0,
            0,
            0.0
          ]
        ]
      },
      {
        "lengthInSteps": 16,
        "mustHitSection": true,
        "sectionNotes": [
          [
            11410.0,
            0,
            0.0
          ],
          [
            11810.0,
            2,
            0.0
          ],
          [
            12010.0,
            3,
            0.0
          ],
          [
            12210.0,
            2,
            0.0
          ],
          [
            12610.0,
            0,
            0.0
          ]
        ]
      },
      {
        "lengthInSteps": 16,
        "mustHitSection": true,
        "sectionNotes": [
          [
            13409.999,
            2,
            0.0
          ],
          [
            13609.999,
            3,
            0.0
          ],
          [
            13809.999,
            2,
            0.0
          ],
          [
            14209.999,
            0,
            0.0
          ]
        ]
      },
      {
        "lengthInSteps": 16,
        "mustHitSection": true,
        "sectionNotes": [
          [
            14609.999,
            0,
            0.0
          ],
          [
            15009.999,
            2,
            0.0
          ],
          [
            15209.999,
            3,
            0.0
          ],
          [
            15409.999,
            2,
            0.0
          ],
          [
            15809.999,
            0,
            0.0
          ]
        ]
      },
      {
        "lengthInSteps": 16,
        "mustHitSection": false,
        "sectionNotes": [
          [
            16209.999,
            2,
            0.0
          ],
          [
            16410.0,
            3,
            0.0
          ],
          [
            16610.0,
            0,
            0.0
          ],
          [
            16810.0,
            3,
            0.0
          ],
          [
            17010.0,
            0,
            0.0
          ],
          [
            17210.0,
            1,
            0.0
          ]
        ]
      },
      {
        "lengthInSteps": 16,
        "mustHitSection": false,
        "sectionNotes": [
          [
            17810.0,
            3,
            0.0
          ],
          [
            18010.0,
            0,
            0.0
          ],
          [
            18210.0,
            2,
            0.0
          ],
          [
            18410.0,
            3,
            0.0
          ],
          [
            18610.0,
            0,
            0.0
          ],
          [
            18810.0,
            1,
            0.0
          ]
        ]
      },
      {
        "lengthInSteps": 16,
        "mustHitSection": false,
        "sectionNotes": [
          [
            19410.0,
            3,
            0.0
          ],
          [
            19610.0,
            0,
            0.0
          ],
          [
            19810.0,
            3,
            0.0
          ],
          [
            20010.0,
            2,
            0.0
          ],
          [
            20210.0,
            0,
            0.0
          ],
          [
            20410.0,
            1,
            0.0
          ]
        ]
      },
      {
        "lengthInSteps": 16,
        "mustHitSection": false,
        "sectionNotes": [
          [
            21010.0,
            2,
            0.0
          ],
          [
            21210.0,
            3,
            0.0
          ],
          [
            21410.0,
            0,
            0.0
          ],
          [
            21610.0,
            3,
            0.0
          ],
          [
            21810.0,
            0,
            0.0
          ],
          [
            22010.0,
            1,
            0.0
          ]
        ]
      },
      {
        "lengthInSteps": 16,
        "mustHitSection": true,
        "sectionNotes": [
          [
            22610.0,
            2,
            0.0
          ],
          [
            22810.0,
            3,
            0.0
          ],
          [
            23010.0,
            0,
            0.0
          ],
          [
            23210.0,
            3,
            0.0
          ],
          [
            23410.0,
            0,
            0.0
          ],
          [
            23610.0,
            1,
            0.0
          ]
        ]
      },
      {
        "lengthInSteps": 16,
        "mustHitSection": true,
        "sectionNotes": [
          [
            24210.0,
            3,
            0.0
          ],
          [
            24410.0,
            0,
            0.0
          ],
          [
            24610.0,
            2,
            0.0
          ],
          [
            24810.0,
            3,
            0.0
          ],
          [
            25010.0,
            0,
            0.0
          ],
          [
            25210.0,
            1,
            0.0
          ]
        ]
      },
      {
        "lengthInSteps": 16,
        "mustHitSection": true,
        "sectionNotes": [
          [
            25809.998,
            3,
            0.0
          ],
          [
            26009.998,
            0,
            0.0
          ],
          [
            26209.998,
            3,
            0.0
          ],
          [
            26409.998,
            2,
            0.0
          ],
          [
            26609.998,
            0,
            0.0
          ],
          [
            26809.998,
            1,
            0.0
          ]
        ]
      },
      {
        "lengthInSteps": 16,
        "mustHitSection": true,
        "sectionNotes": [
          [
            27409.998,
            2,
            0.0
          ],
          [
            27609.998,
            3,
            0.0
          ],
          [
            27809.998,
            0,
            0.0
          ],
          [
            28009.998,
            3,
            0.0
          ],
          [
            28209.998,
            0,
            0.0
          ],
          [
            28409.998,
            1,
            0.0
          ]
        ]
      },
      {
        "lengthInSteps": 16,
        "mustHitSection": false,
        "sectionNotes": [
          [
            29009.998,
            0,
            0.0
          ],
          [
            29209.998,
            3,
            0.0
          ],
          [
            29409.998,
            2,
            0.0
          ],
          [
            29609.998,
            2,
            0.0
          ],
          [
            29809.998,
            3,
            0.0
          ],
          [
            30009.998,
            1,
            0.0
          ],
          [
            30209.998,
            3,
            0.0
          ]
        ]
      },
      {
        "lengthInSteps": 16,
        "mustHitSection": false,
        "sectionNotes": [
          [
            30409.998,
            2,
            0.0
          ],
          [
            30609.998,
            3,
            0.0
          ],
          [
            30709.998,
            0,
            0.0
          ],
          [
            30809.998,
            3,
            0.0
          ],
          [
            31009.998,
            2,
            0.0
          ],
          [
            31209.998,
            0,
            300.0
          ],
          [
            31609.998,
            1,
            200.0
          ]
        ]
      },
      {
        "lengthInSteps": 16,
        "mustHitSection": false,
        "sectionNotes": [
          [
            32209.998,
            3,
            0.0
          ],
          [
            32409.998,
            1,
            0.0
          ],
          [
            32609.998,
            2,
            0.0
          ],
          [
            32810.0,
            3,
            0.0
          ],
          [
            33010.0,
            1,
            0.0
          ],
          [
            33210.0,
            2,
            0.0
          ],
          [
            33410.0,
            3,
            0.0
          ]
        ]
      },
      {
        "lengthInSteps": 16,
        "mustHitSection": false,
        "sectionNotes": [
          [
            33610.0,
            0,
            0.0
          ],
          [
            33810.0,
            0,
            0.0
          ],
          [
            34010.0,
            3,
            0.0
          ],
          [
            34210.0,
            3,
            0.0
          ],
          [
            34410.0,
            2,
            300.0
          ],
          [
            34810.0,
            1,
            300.0
          ]
        ]
      },
      {
        "lengthInSteps": 16,
        "mustHitSection": true,
        "sectionNotes": [
          [
            35410.0,
            0,
            0.0
          ],
          [
            35610.0,
            3,
            0.0
          ],
          [
            35810.0,
            2,
            0.0
          ],
          [
            36010.0,
            2,
            0.0
          ],
          [
            36210.0,
            3,
            0.0
          ],
          [
            36410.0,
            1,
            0.0
          ],
          [
            36610.0,
            3,
            0.0
          ]
        ]
      },
      {
        "lengthInSteps": 16,
        "mustHitSection": true,
        "sectionNotes": [
          [
            36810.0,
            2,
            0.0
          ],
          [
            37010.0,
            3,
            0.0
          ],
          [
            37110.0,
            0,
            0.0
          ],
          [
            37210.0,
            3,
            0.0
          ],
          [
            37410.0,
            2,
            0.0
          ],
          [
            37610.0,
            0,
            300.0
          ],
          [
            38010.0,
            1,
            200.0
          ]
        ]
      },
      {
        "lengthInSteps": 16,
        "mustHitSection": true,
        "sectionNotes": [
          [
            38410.0,
            2,
            0.0
          ],
          [
            38610.0,
            3,
            0.0
          ],
          [
            38810.0,
            1,
            0.0
          ],
          [
            39010.0,
            2,
            0.0
          ],
          [
            39210.0,
            3,
            0.0
          ],
          [
            39410.0,
            1,
            0.0
          ],
          [
            39610.0,
            2,
            0.0
          ],
          [
            39810.0,
            3,
            0.0
          ]
        ]
      },
      {
        "lengthInSteps": 16,
        "mustHitSection": true,
        "sectionNotes": [
          [
            40010.0,
            0,
            0.0
          ],
          [
            40210.0,
            0,
            0.0
          ],
          [
            40410.0,
            3,
            0.0
          ],
          [
            40610.0,
            3,
            0.0
          ],
          [
            40810.0,
            2,
            300.0
          ],
          [
            41210.0,
            1,
            300.0
          ]
        ]
      },
      {
        "lengthInSteps": 16,
        "mustHitSection": false,
        "sectionNotes": [
          [
            41810.0,
            2,
            0.0
          ],
          [
            42010.0,
            3,
            0.0
          ],
          [
            42210.0,
            0,
            0.0
          ],
          [
            42410.0,
            3,
            0.0
          ],
          [
            42610.0,
            0,
            0.0
          ],
          [
            42710.0,
            3,
            0.0
          ],
          [
            42810.0,
            1,
            0.0
          ]
        ]
      },
      {
        "lengthInSteps": 16,
        "mustHitSection": false,
        "sectionNotes": [
          [
            43410.0,
            2,
            0.0
          ],
          [
            43610.0,
            0,
            0.0
          ],
          [
            43810.0,
            3,
            0.0
          ],
          [
            44010.0,
            3,
            0.0
          ],
          [
            44210.0,
            0,
            0.0
          ],
          [
            44310.0,
            3,
            0.0
          ],
          [
            44410.0,
            1,
            0.0
          ]
        ]
      },
      {
        "lengthInSteps": 16,
        "mustHitSection": false,
        "sectionNotes": [
          [
            45010.0,
            3,
            0.0
          ],
          [
            45210.0,
            0,
            0.0
          ],
          [
            45410.0,
            0,
            0.0
          ],
          [
            45610.0,
            2,
            0.0
          ],
          [
            45810.0,
            0,
            0.0
          ],
          [
            45910.0,
            3,
            0.0
          ],
          [
            46010.0,
            1,
            0.0
          ]
        ]
      },
      {
        "lengthInSteps": 16,
        "mustHitSection": false,
        "sectionNotes": [
          [
            46610.0,
            2,
            0.0
          ],
          [
            46810.0,
            3,
            0.0
          ],
          [
            47010.0,
            0,
            0.0
          ],
          [
            47210.0,
            3,
            0.0
          ],
          [
            47410.0,
            0,
            0.0
          ],
          [
            47510.0,
            3,
            0.0
          ],
          [
            47610.0,
            1,
            0.0
          ]
        ]
      },
      {
        "lengthInSteps": 16,
        "mustHitSection": true,
        "sectionNotes": [
          [
            48210.0,
            2,
            0.0
          ],
          [
            48410.0,
            3,
            0.0
          ],
          [
            48610.0,
            0,
            0.0
          ],
          [
            48810.0,
            3,
            0.0
          ],
          [
            49010.0,
            0,
            0.0
          ],
          [
            49110.0,
            3,
            0.0
          ],
          [
            49210.0,
            1,
            0.0
          ]
        ]
      },
      {
        "lengthInSteps": 16,
        "mustHitSection": true,
        "sectionNotes": [
          [
            49810.0,
            2,
            0.0
          ],
          [
            50010.0,
            0,
            0.0
          ],
          [
            50210.0,
            3,
            0.0
          ],
          [
            50410.0,
            3,
            0.0
          ],
          [
            50610.0,
            0,
            0.0
          ],
          [
            50710.0,
            3,
            0.0
          ],
          [
            50810.0,
            1,
            0.0
          ]
        ]
      },
      {
        "lengthInSteps": 16,
        "mustHitSection": true,
        "sectionNotes": [
          [
            51409.9961,
            3,
            0.0
          ],
          [
            51609.9961,
            0,
            0.0
          ],
          [
            51809.9961,
            0,
            0.0
          ],
          [
            52009.9961,
            2,
            0.0
          ],
          [
            52209.9961,
            0,
            0.0
          ],
          [
            52309.9961,
            3,
            0.0
          ],
          [
            52409.9961,
            1,
            0.0
          ]
        ]
      },
      {
        "lengthInSteps": 16,
        "mustHitSection": true,
        "sectionNotes": [
          [
            53009.9961,
            2,
            0.0
          ],
          [
            53209.9961,
            3,
            0.0
          ],
          [
            53409.9961,
            0,
            0.0
          ],
          [
            53609.9961,
            3,
            0.0
          ],
          [
            53809.9961,
            0,
            0.0
          ],
          [
            53909.9961,
            3,
            0.0
          ],
          [
            54009.9961,
            1,
            0.0
          ]
        ]
      },
      {
        "lengthInSteps": 16,
        "mustHitSection": false,
        "sectionNotes": [
          [
            54409.9961,
            6,
            200.0
          ],
          [
            54609.9961,
            2,
            0.0
          ],
          [
            54809.9961,
            3,
            0.0
          ],
          [
            55009.9961,
            0,
            0.0
          ],
          [
            55009.9961,
            7,
            0.0
          ],
          [
            55209.9961,
            3,
            0.0
          ],
          [
            55209.9961,
            5,
            0.0
          ],
          [
            55409.9961,
            0,
            0.0
          ],
          [
            55509.9961,
            3,
            0.0
          ],
          [
            55609.9961,
            1,
            0.0
          ],
          [
            55609.9961,
            7,
            0.0
          ]
        ]
      },
      {
        "lengthInSteps": 16,
        "mustHitSection": true,
        "sectionNotes": [
          [
            56009.9961,
            0,
            0.0
          ],
          [
            56209.9961,
            6,
            0.0
          ],
          [
            56209.9961,
            2,
            0.0
          ],
          [
            56409.9961,
            0,
            0.0
          ],
          [
            56409.9961,
            4,
            0.0
          ],
          [
            56609.9961,
            7,
            0.0
          ],
          [
            56609.9961,
            3,
            0.0
          ],
          [
            56809.9961,
            7,
            0.0
          ],
          [
            56809.9961,
            1,
            200.0
          ],
          [
            57009.9961,
            4,
            0.0
          ],
          [
            57109.9961,
            7,
            0.0
          ],
          [
            57209.9961,
            5,
            0.0
          ]
        ]
      },
      {
        "lengthInSteps": 16,
        "mustHitSection": false,
        "sectionNotes": [
          [
            57609.9961,
            6,
            200.0
          ],
          [
            57809.9961,
            3,
            0.0
          ],
          [
            58009.9961,
            0,
            0.0
          ],
          [
            58209.9961,
            0,
            0.0
          ],
          [
            58209.9961,
            7,
            0.0
          ],
          [
            58409.9961,
            2,
            0.0
          ],
          [
            58409.9961,
            5,
            0.0
          ],
          [
            58609.9961,
            0,
            0.0
          ],
          [
            58709.9961,
            3,
            0.0
          ],
          [
            58809.9961,
            1,
            0.0
          ],
          [
            58809.9961,
            7,
            0.0
          ]
        ]
      },
      {
        "lengthInSteps": 16,
        "mustHitSection": false,
        "sectionNotes": [
          [
            59209.9961,
            4,
            0.0
          ],
          [
            59409.9961,
            2,
            0.0
          ],
          [
            59409.9961,
            6,
            0.0
          ],
          [
            59609.9961,
            4,
            0.0
          ],
          [
            59609.9961,
            3,
            0.0
          ],
          [
            59809.9961,
            0,
            0.0
          ],
          [
            59809.9961,
            7,
            0.0
          ],
          [
            60009.9961,
            6,
            0.0
          ],
          [
            60009.9961,
            3,
            0.0
          ],
          [
            60209.9961,
            6,
            0.0
          ],
          [
            60209.9961,
            0,
            0.0
          ],
          [
            60309.9961,
            3,
            0.0
          ],
          [
            60409.9961,
            4,
            0.0
          ],
          [
            60409.9961,
            1,
            0.0
          ],
          [
            60609.9961,
            4,
            0.0
          ]
        ]
      },
      {
        "lengthInSteps": 16,
        "mustHitSection": true,
        "sectionNotes": [
          [
            61009.9961,
            2,
            0.0
          ],
          [
            61209.9961,
            3,
            0.0
          ],
          [
            61409.9961,
            0,
            0.0
          ],
          [
            61609.9961,
            3,
            0.0
          ],
          [
            61809.9961,
            0,
            0.0
          ],
          [
            61909.9961,
            3,
            0.0
          ],
          [
            62009.9961,
            1,
            0.0
          ]
        ]
      },
      {
        "lengthInSteps": 16,
        "mustHitSection": true,
        "sectionNotes": [
          [
            62609.9961,
            2,
            0.0
          ],
          [
            62809.9961,
            0,
            0.0
          ],
          [
            63009.9961,
            3,
            0.0
          ],
          [
            63209.9961,
            3,
            0.0
          ],
          [
            63409.9961,
            0,
            0.0
          ],
          [
            63509.9961,
            3,
            0.0
          ],
          [
            63609.9961,
            1,
            0.0
          ]
        ]
      },
      {
        "lengthInSteps": 16,
        "mustHitSection": true,
        "sectionNotes": [
          [
            64209.9961,
            3,
            0.0
          ],
          [
            64409.9961,
            0,
            0.0
          ],
          [
            64609.9961,
            0,
            0.0
          ],
          [
            64809.9961,
            2,
            0.0
          ],
          [
            65009.9961,
            0,
            0.0
          ],
          [
            65109.9961,
            3,
            0.0
          ],
          [
            65209.9961,
            1,
            0.0
          ]
        ]
      },
      {
        "lengthInSteps": 16,
        "mustHitSection": true,
        "sectionNotes": [
          [
            65810.0,
            2,
            0.0
          ],
          [
            66010.0,
            3,
            0.0
          ],
          [
            66210.0,
            0,
            0.0
          ],
          [
            66410.0,
            3,
            0.0
          ],
          [
            66610.0,
            0,
            0.0
          ],
          [
            66710.0,
            3,
            0.0
          ],
          [
            66810.0,
            1,
            0.0
          ]
        ]
      },
      {
        "lengthInSteps": 16,
        "mustHitSection": false,
        "sectionNotes": [
          [
            67410.0,
            0,
            0.0
          ],
          [
            67610.0,
            3,
            0.0
          ],
          [
            67810.0,
            2,
            0.0
          ],
          [
            68010.0,
            2,
            0.0
          ],
          [
            68210.0,
            3,
            0.0
          ],
          [
            68410.0,
            1,
            0.0
          ],
          [
            68610.0,
            3,
            0.0
          ]
        ]
      },
      {
        "lengthInSteps": 16,
        "mustHitSection": false,
        "sectionNotes": [
          [
            68810.0,
            2,
            0.0
          ],
          [
            69010.0,
            3,
            0.0
          ],
          [
            69110.0,
            0,
            0.0
          ],
          [
            69210.0,
            3,
            0.0
          ],
          [
            69410.0,
            2,
            0.0
          ],
          [
            69610.0,
            0,
            300.0
          ],
          [
            70010.0,
            1,
            200.0
          ]
        ]
      },
      {
        "lengthInSteps": 16,
        "mustHitSection": false,
        "sectionNotes": [
          [
            70610.0,
            3,
            0.0
          ],
          [
            70810.0,
            1,
            0.0
          ],
          [
            71010.0,
            2,
            0.0
          ],
          [
            71210.0,
            3,
            0.0
          ],
          [
            71410.0,
            1,
            0.0
          ],
          [
            71610.0,
            2,
            0.0
          ],
          [
            71810.0,
            3,
            0.0
          ]
        ]
      },
      {
        "lengthInSteps": 16,
        "mustHitSection": false,
        "sectionNotes": [
          [
            72010.0,
            0,
            0.0
          ],
          [
            72210.0,
            0,
            0.0
          ],
          [
            72410.0,
            3,
            0.0
          ],
          [
            72610.0,
            3,
            0.0
          ],
          [
            72810.0,
            2,
            300.0
          ],
          [
            73210.0,
            1,
            300.0
          ]
        ]
      },
      {
        "lengthInSteps": 16,
        "mustHitSection": true,
        "sectionNotes": [
          [
            73810.0,
            0,
            0.0
          ],
          [
            74010.0,
            3,
            0.0
          ],
          [
            74210.0,
            2,
            0.0
          ],
          [
            74410.0,
            2,
            0.0
          ],
          [
            74610.0,
            3,
            0.0
          ],
          [
            74810.0,
            1,
            0.0
          ],
          [
            75010.0,
            3,
            0.0
          ]
        ]
      },
      {
        "lengthInSteps": 16,
        "mustHitSection": true,
        "sectionNotes": [
          [
            75210.0,
            2,
            0.0
          ],
          [
            75410.0,
            3,
            0.0
          ],
          [
            75510.0,
            0,
            0.0
          ],
          [
            75610.0,
            3,
            0.0
          ],
          [
            75810.0,
            2,
            0.0
          ],
          [
            76010.0,
            0,
            300.0
          ],
          [
            76410.0,
            1,
            200.0
          ]
        ]
      },
      {
        "lengthInSteps": 16,
        "mustHitSection": true,
        "sectionNotes": [
          [
            76810.0,
            2,
            0.0
          ],
          [
            77010.0,
            3,
            0.0
          ],
          [
            77210.0,
            1,
            0.0
          ],
          [
            77410.0,
            2,
            0.0
          ],
          [
            77610.0,
            3,
            0.0
          ],
          [
            77810.0,
            1,
            0.0
          ],
          [
            78010.0,
            2,
            0.0
          ],
          [
            78210.0,
            3,
            0.0
          ]
        ]
      },
      {
        "lengthInSteps": 16,
        "mustHitSection": true,
        "sectionNotes": [
          [
            78410.0,
            0,
            0.0
          ],
          [
            78610.0,
            0,
            0.0
          ],
          [
            78810.0,
            3,
            0.0
          ],
          [
            79010.0,
            3,
            0.0
          ],
          [
            79210.0,
            2,
            300.0
          ],
          [
            79610.0,
            1,
            300.0
          ]
        ]
      }
    ]
  },
  "generatedBy": "SNIFF ver.6"
}