{
    "stage": "pico-stage",
    "envType": "preset",
    "character1":{
        "Name": "pico",
        "pos": [
            500,
            85
        ],
        "size": [
            [
                0.75,
                0.75
            ],
            [
                0.75,
                0.75
            ],
            [
                0.75,
                0.75
            ],
            [
                0.75,
                0.75
            ],
            [
                0.75,
                0.75
            ]
        ]
    },
    "character2": {
        "Name": "boyfriend",
        "pos": [
                500,
                85
        ],
        "size": [
            [
                0.85,
                0.85
            ],
            [
                0.85,
                0.85
            ],
            [
                0.85,
                0.85
            ],
            [
                0.85,
                0.85
            ],
            [
                0.85,
                0.85
            ]
        ]
    },
	"gf":{
		"Enabled": true,
        "style": "girlfriend-speaker",
        "anim": "dancingbeat",
		"OnCenter": false,
        "scale": 0.85,
        "flipped": false,
		"pos": [
			800,
			450
		]
	},
    "customNote": "None",
    "boppingSpeed": 32
}